[
    {
        "inputs": [
            {
                "internalType": "bytes",
                "name": "bytesAddress",
                "type": "bytes"
            }
        ],
        "name": "InvalidBytesLength",
        "type": "error"
    }
]
