[
    {
        "inputs": [
            {
                "internalType": "bytes",
                "name": "checkData",
                "type": "bytes"
            }
        ],
        "name": "checkUpkeep",
        "outputs": [
            {
                "internalType": "bool",
                "name": "upkeepNeeded",
                "type": "bool"
            },
            {
                "internalType": "bytes",
                "name": "performData",
                "type": "bytes"
            }
        ],
        "stateMutability": "nonpayable",
        "type": "function"
    },
    {
        "inputs": [
            {
                "internalType": "bytes",
                "name": "performData",
                "type": "bytes"
            }
        ],
        "name": "performUpkeep",
        "outputs": [],
        "stateMutability": "nonpayable",
        "type": "function"
    }
]
