[
    {
        "inputs": [],
        "name": "InvalidAddressString",
        "type": "error"
    },
    {
        "inputs": [],
        "name": "InvalidGasService",
        "type": "error"
    },
    {
        "inputs": [],
        "name": "InvalidGateway",
        "type": "error"
    },
    {
        "inputs": [],
        "name": "NotApprovedByGateway",
        "type": "error"
    },
    {
        "anonymous": false,
        "inputs": [
            {
                "indexed": true,
                "internalType": "bytes32",
                "name": "projectIdentifier",
                "type": "bytes32"
            },
            {
                "components": [
                    {
                        "internalType": "bytes",
                        "name": "chainSelector",
                        "type": "bytes"
                    },
                    {
                        "internalType": "address",
                        "name": "_address",
                        "type": "address"
                    }
                ],
                "indexed": false,
                "internalType": "struct AddressWithChain",
                "name": "source",
                "type": "tuple"
            },
            {
                "indexed": false,
                "internalType": "bytes",
                "name": "additionalData",
                "type": "bytes"
            }
        ],
        "name": "CrosschainReceive",
        "type": "event"
    },
    {
        "anonymous": false,
        "inputs": [
            {
                "indexed": true,
                "internalType": "bytes32",
                "name": "projectIdentifier",
                "type": "bytes32"
            },
            {
                "components": [
                    {
                        "internalType": "bytes",
                        "name": "chainSelector",
                        "type": "bytes"
                    },
                    {
                        "internalType": "address",
                        "name": "_address",
                        "type": "address"
                    }
                ],
                "indexed": false,
                "internalType": "struct AddressWithChain",
                "name": "destination",
                "type": "tuple"
            },
            {
                "indexed": false,
                "internalType": "bytes",
                "name": "additionalData",
                "type": "bytes"
            }
        ],
        "name": "CrosschainSend",
        "type": "event"
    },
    {
        "inputs": [],
        "name": "AXELAR_TOKEN_SERVICE_CALLER_IDENTIFIER",
        "outputs": [
            {
                "internalType": "bytes32",
                "name": "",
                "type": "bytes32"
            }
        ],
        "stateMutability": "view",
        "type": "function"
    },
    {
        "inputs": [
            {
                "internalType": "bytes32",
                "name": "commandId",
                "type": "bytes32"
            },
            {
                "internalType": "string",
                "name": "sourceChain",
                "type": "string"
            },
            {
                "internalType": "string",
                "name": "sourceAddress",
                "type": "string"
            },
            {
                "internalType": "bytes",
                "name": "payload",
                "type": "bytes"
            },
            {
                "internalType": "string",
                "name": "tokenSymbol",
                "type": "string"
            },
            {
                "internalType": "uint256",
                "name": "amount",
                "type": "uint256"
            }
        ],
        "name": "executeWithToken",
        "outputs": [],
        "stateMutability": "nonpayable",
        "type": "function"
    },
    {
        "inputs": [],
        "name": "gasService",
        "outputs": [
            {
                "internalType": "contract IAxelarGasService",
                "name": "",
                "type": "address"
            }
        ],
        "stateMutability": "view",
        "type": "function"
    },
    {
        "inputs": [],
        "name": "gateway",
        "outputs": [
            {
                "internalType": "contract IAxelarGateway",
                "name": "",
                "type": "address"
            }
        ],
        "stateMutability": "view",
        "type": "function"
    }
]
