[
    {
        "inputs": [],
        "name": "NoContract",
        "type": "error"
    },
    {
        "inputs": [],
        "name": "NoGasForCallExactCheck",
        "type": "error"
    },
    {
        "inputs": [],
        "name": "NotEnoughGasForCall",
        "type": "error"
    }
]
