[
    {
        "inputs": [
            {
                "internalType": "contract IEeseeAccessManager",
                "name": "_accessManager",
                "type": "address"
            },
            {
                "internalType": "contract ISquidRouter",
                "name": "_squid",
                "type": "address"
            },
            {
                "internalType": "address",
                "name": "trustedForwarder",
                "type": "address"
            }
        ],
        "stateMutability": "nonpayable",
        "type": "constructor"
    },
    {
        "inputs": [],
        "name": "CallerNotAuthorized",
        "type": "error"
    },
    {
        "inputs": [],
        "name": "InvalidAccessManager",
        "type": "error"
    },
    {
        "inputs": [],
        "name": "InvalidConstructor",
        "type": "error"
    },
    {
        "inputs": [],
        "name": "InvalidRecipient",
        "type": "error"
    },
    {
        "anonymous": false,
        "inputs": [
            {
                "indexed": false,
                "internalType": "address",
                "name": "account",
                "type": "address"
            }
        ],
        "name": "Paused",
        "type": "event"
    },
    {
        "anonymous": false,
        "inputs": [
            {
                "indexed": false,
                "internalType": "address",
                "name": "account",
                "type": "address"
            }
        ],
        "name": "Unpaused",
        "type": "event"
    },
    {
        "inputs": [],
        "name": "PAUSER_ROLE",
        "outputs": [
            {
                "internalType": "bytes32",
                "name": "",
                "type": "bytes32"
            }
        ],
        "stateMutability": "view",
        "type": "function"
    },
    {
        "inputs": [],
        "name": "accessManager",
        "outputs": [
            {
                "internalType": "contract IEeseeAccessManager",
                "name": "",
                "type": "address"
            }
        ],
        "stateMutability": "view",
        "type": "function"
    },
    {
        "inputs": [
            {
                "components": [
                    {
                        "internalType": "string",
                        "name": "chain",
                        "type": "string"
                    },
                    {
                        "internalType": "address",
                        "name": "_address",
                        "type": "address"
                    }
                ],
                "internalType": "struct EeseeExpress.AddressWithChain",
                "name": "squidRouter",
                "type": "tuple"
            },
            {
                "internalType": "string",
                "name": "tokenToSymbol",
                "type": "string"
            },
            {
                "components": [
                    {
                        "internalType": "contract IERC20",
                        "name": "token",
                        "type": "address"
                    },
                    {
                        "internalType": "uint256",
                        "name": "amount",
                        "type": "uint256"
                    },
                    {
                        "internalType": "bytes",
                        "name": "permit",
                        "type": "bytes"
                    }
                ],
                "internalType": "struct EeseeExpress.TokenData",
                "name": "tokenFrom",
                "type": "tuple"
            },
            {
                "components": [
                    {
                        "internalType": "enum ISquidMulticall.CallType",
                        "name": "callType",
                        "type": "uint8"
                    },
                    {
                        "internalType": "address",
                        "name": "target",
                        "type": "address"
                    },
                    {
                        "internalType": "uint256",
                        "name": "value",
                        "type": "uint256"
                    },
                    {
                        "internalType": "bytes",
                        "name": "callData",
                        "type": "bytes"
                    },
                    {
                        "internalType": "bytes",
                        "name": "payload",
                        "type": "bytes"
                    }
                ],
                "internalType": "struct ISquidMulticall.Call[]",
                "name": "sourceCalls",
                "type": "tuple[]"
            },
            {
                "components": [
                    {
                        "internalType": "enum ISquidMulticall.CallType",
                        "name": "callType",
                        "type": "uint8"
                    },
                    {
                        "internalType": "address",
                        "name": "target",
                        "type": "address"
                    },
                    {
                        "internalType": "uint256",
                        "name": "value",
                        "type": "uint256"
                    },
                    {
                        "internalType": "bytes",
                        "name": "callData",
                        "type": "bytes"
                    },
                    {
                        "internalType": "bytes",
                        "name": "payload",
                        "type": "bytes"
                    }
                ],
                "internalType": "struct ISquidMulticall.Call[]",
                "name": "destinationCalls",
                "type": "tuple[]"
            },
            {
                "internalType": "address",
                "name": "refundRecipient",
                "type": "address"
            },
            {
                "internalType": "bool",
                "name": "isExpress",
                "type": "bool"
            }
        ],
        "name": "callBridgeCall",
        "outputs": [],
        "stateMutability": "payable",
        "type": "function"
    },
    {
        "inputs": [
            {
                "internalType": "address",
                "name": "forwarder",
                "type": "address"
            }
        ],
        "name": "isTrustedForwarder",
        "outputs": [
            {
                "internalType": "bool",
                "name": "",
                "type": "bool"
            }
        ],
        "stateMutability": "view",
        "type": "function"
    },
    {
        "inputs": [],
        "name": "pause",
        "outputs": [],
        "stateMutability": "nonpayable",
        "type": "function"
    },
    {
        "inputs": [],
        "name": "paused",
        "outputs": [
            {
                "internalType": "bool",
                "name": "",
                "type": "bool"
            }
        ],
        "stateMutability": "view",
        "type": "function"
    },
    {
        "inputs": [],
        "name": "squid",
        "outputs": [
            {
                "internalType": "contract ISquidRouter",
                "name": "",
                "type": "address"
            }
        ],
        "stateMutability": "view",
        "type": "function"
    },
    {
        "inputs": [],
        "name": "unpause",
        "outputs": [],
        "stateMutability": "nonpayable",
        "type": "function"
    }
]
