[
    {
        "inputs": [
            {
                "internalType": "address",
                "name": "_ESE",
                "type": "address"
            },
            {
                "components": [
                    {
                        "internalType": "uint256",
                        "name": "volumeBreakpoint",
                        "type": "uint256"
                    },
                    {
                        "internalType": "uint64",
                        "name": "rewardRateFlexible",
                        "type": "uint64"
                    },
                    {
                        "internalType": "uint64",
                        "name": "rewardRateLocked",
                        "type": "uint64"
                    }
                ],
                "internalType": "struct IEeseeStaking._TierData[]",
                "name": "_tierData",
                "type": "tuple[]"
            },
            {
                "internalType": "contract IEeseeAccessManager",
                "name": "_accessManager",
                "type": "address"
            },
            {
                "internalType": "address",
                "name": "trustedForwarder",
                "type": "address"
            }
        ],
        "stateMutability": "nonpayable",
        "type": "constructor"
    },
    {
        "inputs": [],
        "name": "AlreadyGranted",
        "type": "error"
    },
    {
        "inputs": [],
        "name": "CallerNotAuthorized",
        "type": "error"
    },
    {
        "inputs": [],
        "name": "CallerNotVolumeUpdater",
        "type": "error"
    },
    {
        "inputs": [],
        "name": "InsufficientStake",
        "type": "error"
    },
    {
        "inputs": [],
        "name": "InvalidAccessManager",
        "type": "error"
    },
    {
        "inputs": [],
        "name": "InvalidBreakpoint",
        "type": "error"
    },
    {
        "inputs": [],
        "name": "InvalidDuration",
        "type": "error"
    },
    {
        "inputs": [],
        "name": "InvalidESE",
        "type": "error"
    },
    {
        "inputs": [],
        "name": "InvalidRecipient",
        "type": "error"
    },
    {
        "inputs": [],
        "name": "InvalidRewardID",
        "type": "error"
    },
    {
        "inputs": [],
        "name": "InvalidRewardRate",
        "type": "error"
    },
    {
        "inputs": [],
        "name": "InvalidTiersLength",
        "type": "error"
    },
    {
        "inputs": [],
        "name": "VolumeUpdaterNotGranted",
        "type": "error"
    },
    {
        "inputs": [],
        "name": "WithdrawalNotAvailable",
        "type": "error"
    },
    {
        "anonymous": false,
        "inputs": [
            {
                "indexed": true,
                "internalType": "address",
                "name": "volumeUpdater",
                "type": "address"
            },
            {
                "indexed": true,
                "internalType": "address",
                "name": "user",
                "type": "address"
            },
            {
                "indexed": false,
                "internalType": "uint96",
                "name": "amount",
                "type": "uint96"
            }
        ],
        "name": "AddVolume",
        "type": "event"
    },
    {
        "anonymous": false,
        "inputs": [
            {
                "indexed": true,
                "internalType": "uint32",
                "name": "previousDuration",
                "type": "uint32"
            },
            {
                "indexed": true,
                "internalType": "uint32",
                "name": "newDuration",
                "type": "uint32"
            }
        ],
        "name": "ChangeDuration",
        "type": "event"
    },
    {
        "anonymous": false,
        "inputs": [
            {
                "indexed": true,
                "internalType": "address",
                "name": "user",
                "type": "address"
            },
            {
                "indexed": false,
                "internalType": "uint96",
                "name": "amount",
                "type": "uint96"
            }
        ],
        "name": "DepositFlexible",
        "type": "event"
    },
    {
        "anonymous": false,
        "inputs": [
            {
                "indexed": true,
                "internalType": "address",
                "name": "user",
                "type": "address"
            },
            {
                "indexed": false,
                "internalType": "uint96",
                "name": "amount",
                "type": "uint96"
            },
            {
                "indexed": false,
                "internalType": "uint32",
                "name": "unlockTime",
                "type": "uint32"
            }
        ],
        "name": "DepositLocked",
        "type": "event"
    },
    {
        "anonymous": false,
        "inputs": [
            {
                "indexed": true,
                "internalType": "address",
                "name": "account",
                "type": "address"
            }
        ],
        "name": "GrantVolumeUpdater",
        "type": "event"
    },
    {
        "anonymous": false,
        "inputs": [
            {
                "indexed": true,
                "internalType": "address",
                "name": "account",
                "type": "address"
            }
        ],
        "name": "RevokeVolumeUpdater",
        "type": "event"
    },
    {
        "anonymous": false,
        "inputs": [
            {
                "indexed": false,
                "internalType": "uint64[]",
                "name": "rewardRatesFlexible",
                "type": "uint64[]"
            },
            {
                "indexed": false,
                "internalType": "uint64[]",
                "name": "rewardRatesLocked",
                "type": "uint64[]"
            }
        ],
        "name": "UpdateRewardRates",
        "type": "event"
    },
    {
        "anonymous": false,
        "inputs": [
            {
                "indexed": true,
                "internalType": "address",
                "name": "sender",
                "type": "address"
            },
            {
                "indexed": true,
                "internalType": "address",
                "name": "recipient",
                "type": "address"
            },
            {
                "indexed": false,
                "internalType": "uint96",
                "name": "amount",
                "type": "uint96"
            }
        ],
        "name": "WithdrawFlexible",
        "type": "event"
    },
    {
        "anonymous": false,
        "inputs": [
            {
                "indexed": true,
                "internalType": "address",
                "name": "sender",
                "type": "address"
            },
            {
                "indexed": true,
                "internalType": "address",
                "name": "recipient",
                "type": "address"
            },
            {
                "indexed": false,
                "internalType": "uint96",
                "name": "amount",
                "type": "uint96"
            }
        ],
        "name": "WithdrawLocked",
        "type": "event"
    },
    {
        "inputs": [],
        "name": "ADMIN_ROLE",
        "outputs": [
            {
                "internalType": "bytes32",
                "name": "",
                "type": "bytes32"
            }
        ],
        "stateMutability": "view",
        "type": "function"
    },
    {
        "inputs": [],
        "name": "ESE",
        "outputs": [
            {
                "internalType": "contract IERC20",
                "name": "",
                "type": "address"
            }
        ],
        "stateMutability": "view",
        "type": "function"
    },
    {
        "inputs": [],
        "name": "accessManager",
        "outputs": [
            {
                "internalType": "contract IEeseeAccessManager",
                "name": "",
                "type": "address"
            }
        ],
        "stateMutability": "view",
        "type": "function"
    },
    {
        "inputs": [
            {
                "internalType": "uint96",
                "name": "_volume",
                "type": "uint96"
            },
            {
                "internalType": "address",
                "name": "_address",
                "type": "address"
            }
        ],
        "name": "addVolume",
        "outputs": [],
        "stateMutability": "nonpayable",
        "type": "function"
    },
    {
        "inputs": [
            {
                "internalType": "uint32",
                "name": "_duration",
                "type": "uint32"
            }
        ],
        "name": "changeDuration",
        "outputs": [],
        "stateMutability": "nonpayable",
        "type": "function"
    },
    {
        "inputs": [
            {
                "internalType": "uint96",
                "name": "amount",
                "type": "uint96"
            },
            {
                "internalType": "uint32",
                "name": "lockDuration",
                "type": "uint32"
            },
            {
                "internalType": "uint32",
                "name": "expectedRewardID",
                "type": "uint32"
            },
            {
                "internalType": "bytes",
                "name": "permit",
                "type": "bytes"
            }
        ],
        "name": "deposit",
        "outputs": [],
        "stateMutability": "nonpayable",
        "type": "function"
    },
    {
        "inputs": [],
        "name": "duration",
        "outputs": [
            {
                "internalType": "uint32",
                "name": "",
                "type": "uint32"
            }
        ],
        "stateMutability": "view",
        "type": "function"
    },
    {
        "inputs": [
            {
                "internalType": "address",
                "name": "_address",
                "type": "address"
            }
        ],
        "name": "grantVolumeUpdater",
        "outputs": [],
        "stateMutability": "nonpayable",
        "type": "function"
    },
    {
        "inputs": [
            {
                "internalType": "address",
                "name": "forwarder",
                "type": "address"
            }
        ],
        "name": "isTrustedForwarder",
        "outputs": [
            {
                "internalType": "bool",
                "name": "",
                "type": "bool"
            }
        ],
        "stateMutability": "view",
        "type": "function"
    },
    {
        "inputs": [
            {
                "internalType": "bool",
                "name": "isLocked",
                "type": "bool"
            },
            {
                "internalType": "address",
                "name": "_user",
                "type": "address"
            }
        ],
        "name": "pendingReward",
        "outputs": [
            {
                "internalType": "uint96",
                "name": "",
                "type": "uint96"
            }
        ],
        "stateMutability": "view",
        "type": "function"
    },
    {
        "inputs": [
            {
                "internalType": "address",
                "name": "_address",
                "type": "address"
            }
        ],
        "name": "revokeVolumeUpdater",
        "outputs": [],
        "stateMutability": "nonpayable",
        "type": "function"
    },
    {
        "inputs": [],
        "name": "rewardID",
        "outputs": [
            {
                "internalType": "uint32",
                "name": "",
                "type": "uint32"
            }
        ],
        "stateMutability": "view",
        "type": "function"
    },
    {
        "inputs": [
            {
                "internalType": "uint256",
                "name": "_volume",
                "type": "uint256"
            }
        ],
        "name": "tier",
        "outputs": [
            {
                "internalType": "uint256",
                "name": "",
                "type": "uint256"
            }
        ],
        "stateMutability": "view",
        "type": "function"
    },
    {
        "inputs": [
            {
                "internalType": "uint256",
                "name": "_tier",
                "type": "uint256"
            }
        ],
        "name": "tierInfo",
        "outputs": [
            {
                "components": [
                    {
                        "internalType": "uint256",
                        "name": "volumeBreakpoint",
                        "type": "uint256"
                    },
                    {
                        "internalType": "uint64",
                        "name": "rewardRateFlexible",
                        "type": "uint64"
                    },
                    {
                        "internalType": "uint64",
                        "name": "rewardRateLocked",
                        "type": "uint64"
                    }
                ],
                "internalType": "struct IEeseeStaking._TierData",
                "name": "_tierData",
                "type": "tuple"
            }
        ],
        "stateMutability": "view",
        "type": "function"
    },
    {
        "inputs": [],
        "name": "totalDeposits",
        "outputs": [
            {
                "internalType": "uint96",
                "name": "",
                "type": "uint96"
            }
        ],
        "stateMutability": "view",
        "type": "function"
    },
    {
        "inputs": [
            {
                "internalType": "uint64[]",
                "name": "rewardRatesFlexible",
                "type": "uint64[]"
            },
            {
                "internalType": "uint64[]",
                "name": "rewardRatesLocked",
                "type": "uint64[]"
            }
        ],
        "name": "updateRewardRates",
        "outputs": [],
        "stateMutability": "nonpayable",
        "type": "function"
    },
    {
        "inputs": [
            {
                "internalType": "bool",
                "name": "",
                "type": "bool"
            },
            {
                "internalType": "address",
                "name": "",
                "type": "address"
            }
        ],
        "name": "userInfo",
        "outputs": [
            {
                "internalType": "uint96",
                "name": "amount",
                "type": "uint96"
            },
            {
                "internalType": "uint96",
                "name": "reward",
                "type": "uint96"
            },
            {
                "internalType": "uint32",
                "name": "unlockTime",
                "type": "uint32"
            },
            {
                "internalType": "uint32",
                "name": "rewardID",
                "type": "uint32"
            },
            {
                "internalType": "uint256",
                "name": "rewardDebt",
                "type": "uint256"
            }
        ],
        "stateMutability": "view",
        "type": "function"
    },
    {
        "inputs": [
            {
                "internalType": "address",
                "name": "",
                "type": "address"
            }
        ],
        "name": "volume",
        "outputs": [
            {
                "internalType": "uint256",
                "name": "",
                "type": "uint256"
            }
        ],
        "stateMutability": "view",
        "type": "function"
    },
    {
        "inputs": [
            {
                "internalType": "address",
                "name": "",
                "type": "address"
            }
        ],
        "name": "volumeUpdaters",
        "outputs": [
            {
                "internalType": "bool",
                "name": "",
                "type": "bool"
            }
        ],
        "stateMutability": "view",
        "type": "function"
    },
    {
        "inputs": [
            {
                "internalType": "bool",
                "name": "isLocked",
                "type": "bool"
            },
            {
                "internalType": "uint96",
                "name": "amount",
                "type": "uint96"
            },
            {
                "internalType": "address",
                "name": "recipient",
                "type": "address"
            }
        ],
        "name": "withdraw",
        "outputs": [
            {
                "internalType": "uint96",
                "name": "ESEReceived",
                "type": "uint96"
            }
        ],
        "stateMutability": "nonpayable",
        "type": "function"
    }
]
