[
    {
        "inputs": [
            {
                "internalType": "address",
                "name": "_treasury",
                "type": "address"
            },
            {
                "internalType": "contract IUniswapV2Router02",
                "name": "_uniswapRouter",
                "type": "address"
            },
            {
                "internalType": "contract IEeseeAccessManager",
                "name": "_accessManager",
                "type": "address"
            },
            {
                "internalType": "address",
                "name": "_trustedForwarder",
                "type": "address"
            }
        ],
        "stateMutability": "nonpayable",
        "type": "constructor"
    },
    {
        "inputs": [],
        "name": "CallerNotAuthorized",
        "type": "error"
    },
    {
        "inputs": [],
        "name": "EthDepositRejected",
        "type": "error"
    },
    {
        "inputs": [],
        "name": "InvalidAccessManager",
        "type": "error"
    },
    {
        "inputs": [],
        "name": "InvalidAmount",
        "type": "error"
    },
    {
        "inputs": [],
        "name": "InvalidMsgValue",
        "type": "error"
    },
    {
        "inputs": [],
        "name": "InvalidRecipient",
        "type": "error"
    },
    {
        "inputs": [],
        "name": "InvalidRouter",
        "type": "error"
    },
    {
        "inputs": [],
        "name": "InvalidTreasury",
        "type": "error"
    },
    {
        "anonymous": false,
        "inputs": [
            {
                "indexed": true,
                "internalType": "contract IERC20",
                "name": "token",
                "type": "address"
            },
            {
                "indexed": false,
                "internalType": "uint256",
                "name": "amount",
                "type": "uint256"
            },
            {
                "indexed": true,
                "internalType": "address",
                "name": "treasury",
                "type": "address"
            }
        ],
        "name": "CollectToTreasury",
        "type": "event"
    },
    {
        "anonymous": false,
        "inputs": [
            {
                "indexed": false,
                "internalType": "address",
                "name": "account",
                "type": "address"
            }
        ],
        "name": "Paused",
        "type": "event"
    },
    {
        "anonymous": false,
        "inputs": [
            {
                "components": [
                    {
                        "internalType": "address",
                        "name": "token",
                        "type": "address"
                    },
                    {
                        "internalType": "uint256",
                        "name": "tokenID",
                        "type": "uint256"
                    },
                    {
                        "internalType": "uint256",
                        "name": "amount",
                        "type": "uint256"
                    },
                    {
                        "internalType": "enum AssetType",
                        "name": "assetType",
                        "type": "uint8"
                    },
                    {
                        "internalType": "bytes",
                        "name": "data",
                        "type": "bytes"
                    }
                ],
                "indexed": false,
                "internalType": "struct Asset",
                "name": "assetBought",
                "type": "tuple"
            },
            {
                "indexed": true,
                "internalType": "contract IERC20",
                "name": "tokenSpent",
                "type": "address"
            },
            {
                "indexed": false,
                "internalType": "uint256",
                "name": "spent",
                "type": "uint256"
            },
            {
                "indexed": true,
                "internalType": "address",
                "name": "recipient",
                "type": "address"
            }
        ],
        "name": "ReceiveAsset",
        "type": "event"
    },
    {
        "anonymous": false,
        "inputs": [
            {
                "indexed": false,
                "internalType": "address",
                "name": "account",
                "type": "address"
            }
        ],
        "name": "Unpaused",
        "type": "event"
    },
    {
        "anonymous": false,
        "inputs": [
            {
                "indexed": true,
                "internalType": "address",
                "name": "previousTreasury",
                "type": "address"
            },
            {
                "indexed": true,
                "internalType": "address",
                "name": "newTreasury",
                "type": "address"
            }
        ],
        "name": "UpdateTreasury",
        "type": "event"
    },
    {
        "inputs": [],
        "name": "ADMIN_ROLE",
        "outputs": [
            {
                "internalType": "bytes32",
                "name": "",
                "type": "bytes32"
            }
        ],
        "stateMutability": "view",
        "type": "function"
    },
    {
        "inputs": [],
        "name": "PAUSER_ROLE",
        "outputs": [
            {
                "internalType": "bytes32",
                "name": "",
                "type": "bytes32"
            }
        ],
        "stateMutability": "view",
        "type": "function"
    },
    {
        "inputs": [],
        "name": "WETH",
        "outputs": [
            {
                "internalType": "address",
                "name": "",
                "type": "address"
            }
        ],
        "stateMutability": "view",
        "type": "function"
    },
    {
        "inputs": [],
        "name": "accessManager",
        "outputs": [
            {
                "internalType": "contract IEeseeAccessManager",
                "name": "",
                "type": "address"
            }
        ],
        "stateMutability": "view",
        "type": "function"
    },
    {
        "inputs": [
            {
                "internalType": "address",
                "name": "forwarder",
                "type": "address"
            }
        ],
        "name": "isTrustedForwarder",
        "outputs": [
            {
                "internalType": "bool",
                "name": "",
                "type": "bool"
            }
        ],
        "stateMutability": "view",
        "type": "function"
    },
    {
        "inputs": [],
        "name": "pause",
        "outputs": [],
        "stateMutability": "nonpayable",
        "type": "function"
    },
    {
        "inputs": [],
        "name": "paused",
        "outputs": [
            {
                "internalType": "bool",
                "name": "",
                "type": "bool"
            }
        ],
        "stateMutability": "view",
        "type": "function"
    },
    {
        "inputs": [
            {
                "components": [
                    {
                        "internalType": "bytes",
                        "name": "swapData",
                        "type": "bytes"
                    },
                    {
                        "components": [
                            {
                                "internalType": "contract IEeseeMarketplaceRouter",
                                "name": "router",
                                "type": "address"
                            },
                            {
                                "internalType": "bytes",
                                "name": "data",
                                "type": "bytes"
                            }
                        ],
                        "internalType": "struct IEeseeSwap.MarketplaceRouterData[]",
                        "name": "marketplaceRoutersData",
                        "type": "tuple[]"
                    }
                ],
                "internalType": "struct IEeseeSwap.SwapParams",
                "name": "swapParams",
                "type": "tuple"
            },
            {
                "internalType": "address",
                "name": "recipient",
                "type": "address"
            }
        ],
        "name": "swapTokensForAssets",
        "outputs": [
            {
                "internalType": "contract IERC20",
                "name": "srcToken",
                "type": "address"
            },
            {
                "internalType": "uint256",
                "name": "srcSpent",
                "type": "uint256"
            },
            {
                "components": [
                    {
                        "internalType": "address",
                        "name": "token",
                        "type": "address"
                    },
                    {
                        "internalType": "uint256",
                        "name": "tokenID",
                        "type": "uint256"
                    },
                    {
                        "internalType": "uint256",
                        "name": "amount",
                        "type": "uint256"
                    },
                    {
                        "internalType": "enum AssetType",
                        "name": "assetType",
                        "type": "uint8"
                    },
                    {
                        "internalType": "bytes",
                        "name": "data",
                        "type": "bytes"
                    }
                ],
                "internalType": "struct Asset[]",
                "name": "assets",
                "type": "tuple[]"
            }
        ],
        "stateMutability": "payable",
        "type": "function"
    },
    {
        "inputs": [],
        "name": "treasury",
        "outputs": [
            {
                "internalType": "address",
                "name": "",
                "type": "address"
            }
        ],
        "stateMutability": "view",
        "type": "function"
    },
    {
        "inputs": [],
        "name": "uniswapRouter",
        "outputs": [
            {
                "internalType": "contract IUniswapV2Router02",
                "name": "",
                "type": "address"
            }
        ],
        "stateMutability": "view",
        "type": "function"
    },
    {
        "inputs": [],
        "name": "unpause",
        "outputs": [],
        "stateMutability": "nonpayable",
        "type": "function"
    },
    {
        "inputs": [
            {
                "internalType": "address",
                "name": "_treasury",
                "type": "address"
            }
        ],
        "name": "updateTreasury",
        "outputs": [],
        "stateMutability": "nonpayable",
        "type": "function"
    },
    {
        "stateMutability": "payable",
        "type": "receive"
    }
]
