[
    {
        "inputs": [
            {
                "internalType": "contract IEeseeAccessManager",
                "name": "_accessManager",
                "type": "address"
            },
            {
                "internalType": "contract IBlastPoints",
                "name": "_blastPoints",
                "type": "address"
            },
            {
                "internalType": "address",
                "name": "_blastPointsOperator",
                "type": "address"
            },
            {
                "internalType": "address",
                "name": "trustedForwarder",
                "type": "address"
            }
        ],
        "stateMutability": "nonpayable",
        "type": "constructor"
    },
    {
        "inputs": [],
        "name": "CallerNotAuthorized",
        "type": "error"
    },
    {
        "inputs": [],
        "name": "ExpiredDeadline",
        "type": "error"
    },
    {
        "inputs": [],
        "name": "InvalidAccessManager",
        "type": "error"
    },
    {
        "inputs": [],
        "name": "InvalidAmount",
        "type": "error"
    },
    {
        "inputs": [],
        "name": "InvalidAssetType",
        "type": "error"
    },
    {
        "inputs": [],
        "name": "InvalidPointsOperator",
        "type": "error"
    },
    {
        "inputs": [],
        "name": "InvalidRecipient",
        "type": "error"
    },
    {
        "inputs": [],
        "name": "InvalidShortString",
        "type": "error"
    },
    {
        "inputs": [],
        "name": "InvalidSignature",
        "type": "error"
    },
    {
        "inputs": [],
        "name": "InvalidValue",
        "type": "error"
    },
    {
        "inputs": [],
        "name": "NonceUsed",
        "type": "error"
    },
    {
        "inputs": [
            {
                "internalType": "string",
                "name": "str",
                "type": "string"
            }
        ],
        "name": "StringTooLong",
        "type": "error"
    },
    {
        "inputs": [],
        "name": "TransferNotSuccessful",
        "type": "error"
    },
    {
        "anonymous": false,
        "inputs": [
            {
                "indexed": true,
                "internalType": "bytes32",
                "name": "ID",
                "type": "bytes32"
            },
            {
                "components": [
                    {
                        "internalType": "address",
                        "name": "token",
                        "type": "address"
                    },
                    {
                        "internalType": "uint256",
                        "name": "tokenID",
                        "type": "uint256"
                    },
                    {
                        "internalType": "uint256",
                        "name": "amount",
                        "type": "uint256"
                    },
                    {
                        "internalType": "enum AssetType",
                        "name": "assetType",
                        "type": "uint8"
                    },
                    {
                        "internalType": "bytes",
                        "name": "data",
                        "type": "bytes"
                    }
                ],
                "indexed": false,
                "internalType": "struct Asset",
                "name": "asset",
                "type": "tuple"
            },
            {
                "indexed": false,
                "internalType": "address",
                "name": "sender",
                "type": "address"
            },
            {
                "indexed": true,
                "internalType": "address",
                "name": "recipient",
                "type": "address"
            },
            {
                "indexed": true,
                "internalType": "uint256",
                "name": "nonce",
                "type": "uint256"
            }
        ],
        "name": "BuyTickets",
        "type": "event"
    },
    {
        "anonymous": false,
        "inputs": [
            {
                "indexed": true,
                "internalType": "bytes32",
                "name": "ID",
                "type": "bytes32"
            },
            {
                "components": [
                    {
                        "internalType": "address",
                        "name": "token",
                        "type": "address"
                    },
                    {
                        "internalType": "uint256",
                        "name": "tokenID",
                        "type": "uint256"
                    },
                    {
                        "internalType": "uint256",
                        "name": "amount",
                        "type": "uint256"
                    },
                    {
                        "internalType": "enum AssetType",
                        "name": "assetType",
                        "type": "uint8"
                    },
                    {
                        "internalType": "bytes",
                        "name": "data",
                        "type": "bytes"
                    }
                ],
                "indexed": false,
                "internalType": "struct Asset",
                "name": "asset",
                "type": "tuple"
            },
            {
                "indexed": true,
                "internalType": "address",
                "name": "sender",
                "type": "address"
            },
            {
                "indexed": false,
                "internalType": "address",
                "name": "recipient",
                "type": "address"
            },
            {
                "indexed": true,
                "internalType": "uint256",
                "name": "nonce",
                "type": "uint256"
            }
        ],
        "name": "ClaimAsset",
        "type": "event"
    },
    {
        "anonymous": false,
        "inputs": [
            {
                "indexed": true,
                "internalType": "bytes32",
                "name": "ID",
                "type": "bytes32"
            },
            {
                "components": [
                    {
                        "internalType": "address",
                        "name": "token",
                        "type": "address"
                    },
                    {
                        "internalType": "uint256",
                        "name": "tokenID",
                        "type": "uint256"
                    },
                    {
                        "internalType": "uint256",
                        "name": "amount",
                        "type": "uint256"
                    },
                    {
                        "internalType": "enum AssetType",
                        "name": "assetType",
                        "type": "uint8"
                    },
                    {
                        "internalType": "bytes",
                        "name": "data",
                        "type": "bytes"
                    }
                ],
                "indexed": false,
                "internalType": "struct Asset",
                "name": "asset",
                "type": "tuple"
            },
            {
                "indexed": true,
                "internalType": "address",
                "name": "sender",
                "type": "address"
            },
            {
                "indexed": false,
                "internalType": "bytes",
                "name": "data",
                "type": "bytes"
            },
            {
                "indexed": true,
                "internalType": "uint256",
                "name": "nonce",
                "type": "uint256"
            }
        ],
        "name": "CreateLot",
        "type": "event"
    },
    {
        "anonymous": false,
        "inputs": [],
        "name": "EIP712DomainChanged",
        "type": "event"
    },
    {
        "anonymous": false,
        "inputs": [
            {
                "indexed": true,
                "internalType": "uint256",
                "name": "nonce",
                "type": "uint256"
            }
        ],
        "name": "RevokeSignature",
        "type": "event"
    },
    {
        "inputs": [],
        "name": "accessManager",
        "outputs": [
            {
                "internalType": "contract IEeseeAccessManager",
                "name": "",
                "type": "address"
            }
        ],
        "stateMutability": "view",
        "type": "function"
    },
    {
        "inputs": [
            {
                "internalType": "bytes32",
                "name": "ID",
                "type": "bytes32"
            },
            {
                "components": [
                    {
                        "internalType": "address",
                        "name": "token",
                        "type": "address"
                    },
                    {
                        "internalType": "uint256",
                        "name": "tokenID",
                        "type": "uint256"
                    },
                    {
                        "internalType": "uint256",
                        "name": "amount",
                        "type": "uint256"
                    },
                    {
                        "internalType": "enum AssetType",
                        "name": "assetType",
                        "type": "uint8"
                    },
                    {
                        "internalType": "bytes",
                        "name": "data",
                        "type": "bytes"
                    }
                ],
                "internalType": "struct Asset",
                "name": "asset",
                "type": "tuple"
            },
            {
                "internalType": "address",
                "name": "recipient",
                "type": "address"
            },
            {
                "components": [
                    {
                        "internalType": "uint256",
                        "name": "nonce",
                        "type": "uint256"
                    },
                    {
                        "internalType": "uint256",
                        "name": "deadline",
                        "type": "uint256"
                    },
                    {
                        "internalType": "bytes",
                        "name": "signature",
                        "type": "bytes"
                    }
                ],
                "internalType": "struct EeseeOffchain.SignatureData",
                "name": "signatureData",
                "type": "tuple"
            }
        ],
        "name": "buyTickets",
        "outputs": [],
        "stateMutability": "payable",
        "type": "function"
    },
    {
        "inputs": [
            {
                "internalType": "bytes32",
                "name": "ID",
                "type": "bytes32"
            },
            {
                "components": [
                    {
                        "internalType": "address",
                        "name": "token",
                        "type": "address"
                    },
                    {
                        "internalType": "uint256",
                        "name": "tokenID",
                        "type": "uint256"
                    },
                    {
                        "internalType": "uint256",
                        "name": "amount",
                        "type": "uint256"
                    },
                    {
                        "internalType": "enum AssetType",
                        "name": "assetType",
                        "type": "uint8"
                    },
                    {
                        "internalType": "bytes",
                        "name": "data",
                        "type": "bytes"
                    }
                ],
                "internalType": "struct Asset",
                "name": "asset",
                "type": "tuple"
            },
            {
                "internalType": "address",
                "name": "recipient",
                "type": "address"
            },
            {
                "internalType": "bytes",
                "name": "_call",
                "type": "bytes"
            },
            {
                "components": [
                    {
                        "internalType": "uint256",
                        "name": "nonce",
                        "type": "uint256"
                    },
                    {
                        "internalType": "uint256",
                        "name": "deadline",
                        "type": "uint256"
                    },
                    {
                        "internalType": "bytes",
                        "name": "signature",
                        "type": "bytes"
                    }
                ],
                "internalType": "struct EeseeOffchain.SignatureData",
                "name": "signatureData",
                "type": "tuple"
            }
        ],
        "name": "claimAsset",
        "outputs": [
            {
                "internalType": "bytes",
                "name": "returnData",
                "type": "bytes"
            }
        ],
        "stateMutability": "payable",
        "type": "function"
    },
    {
        "inputs": [
            {
                "components": [
                    {
                        "internalType": "address",
                        "name": "token",
                        "type": "address"
                    },
                    {
                        "internalType": "uint256",
                        "name": "tokenID",
                        "type": "uint256"
                    },
                    {
                        "internalType": "uint256",
                        "name": "amount",
                        "type": "uint256"
                    },
                    {
                        "internalType": "enum AssetType",
                        "name": "assetType",
                        "type": "uint8"
                    },
                    {
                        "internalType": "bytes",
                        "name": "data",
                        "type": "bytes"
                    }
                ],
                "internalType": "struct Asset",
                "name": "asset",
                "type": "tuple"
            },
            {
                "internalType": "bytes",
                "name": "data",
                "type": "bytes"
            },
            {
                "components": [
                    {
                        "internalType": "uint256",
                        "name": "nonce",
                        "type": "uint256"
                    },
                    {
                        "internalType": "uint256",
                        "name": "deadline",
                        "type": "uint256"
                    },
                    {
                        "internalType": "bytes",
                        "name": "signature",
                        "type": "bytes"
                    }
                ],
                "internalType": "struct EeseeOffchain.SignatureData",
                "name": "signatureData",
                "type": "tuple"
            }
        ],
        "name": "createLot",
        "outputs": [
            {
                "internalType": "bytes32",
                "name": "ID",
                "type": "bytes32"
            }
        ],
        "stateMutability": "payable",
        "type": "function"
    },
    {
        "inputs": [],
        "name": "eip712Domain",
        "outputs": [
            {
                "internalType": "bytes1",
                "name": "fields",
                "type": "bytes1"
            },
            {
                "internalType": "string",
                "name": "name",
                "type": "string"
            },
            {
                "internalType": "string",
                "name": "version",
                "type": "string"
            },
            {
                "internalType": "uint256",
                "name": "chainId",
                "type": "uint256"
            },
            {
                "internalType": "address",
                "name": "verifyingContract",
                "type": "address"
            },
            {
                "internalType": "bytes32",
                "name": "salt",
                "type": "bytes32"
            },
            {
                "internalType": "uint256[]",
                "name": "extensions",
                "type": "uint256[]"
            }
        ],
        "stateMutability": "view",
        "type": "function"
    },
    {
        "inputs": [
            {
                "internalType": "uint256",
                "name": "nonce",
                "type": "uint256"
            }
        ],
        "name": "getLotId",
        "outputs": [
            {
                "internalType": "bytes32",
                "name": "",
                "type": "bytes32"
            }
        ],
        "stateMutability": "pure",
        "type": "function"
    },
    {
        "inputs": [
            {
                "internalType": "address",
                "name": "forwarder",
                "type": "address"
            }
        ],
        "name": "isTrustedForwarder",
        "outputs": [
            {
                "internalType": "bool",
                "name": "",
                "type": "bool"
            }
        ],
        "stateMutability": "view",
        "type": "function"
    },
    {
        "inputs": [
            {
                "internalType": "uint256",
                "name": "",
                "type": "uint256"
            }
        ],
        "name": "nonceUsed",
        "outputs": [
            {
                "internalType": "bool",
                "name": "",
                "type": "bool"
            }
        ],
        "stateMutability": "view",
        "type": "function"
    },
    {
        "inputs": [
            {
                "internalType": "address",
                "name": "",
                "type": "address"
            },
            {
                "internalType": "address",
                "name": "",
                "type": "address"
            },
            {
                "internalType": "uint256[]",
                "name": "",
                "type": "uint256[]"
            },
            {
                "internalType": "uint256[]",
                "name": "",
                "type": "uint256[]"
            },
            {
                "internalType": "bytes",
                "name": "",
                "type": "bytes"
            }
        ],
        "name": "onERC1155BatchReceived",
        "outputs": [
            {
                "internalType": "bytes4",
                "name": "",
                "type": "bytes4"
            }
        ],
        "stateMutability": "nonpayable",
        "type": "function"
    },
    {
        "inputs": [
            {
                "internalType": "address",
                "name": "",
                "type": "address"
            },
            {
                "internalType": "address",
                "name": "",
                "type": "address"
            },
            {
                "internalType": "uint256",
                "name": "",
                "type": "uint256"
            },
            {
                "internalType": "uint256",
                "name": "",
                "type": "uint256"
            },
            {
                "internalType": "bytes",
                "name": "",
                "type": "bytes"
            }
        ],
        "name": "onERC1155Received",
        "outputs": [
            {
                "internalType": "bytes4",
                "name": "",
                "type": "bytes4"
            }
        ],
        "stateMutability": "nonpayable",
        "type": "function"
    },
    {
        "inputs": [
            {
                "internalType": "address",
                "name": "",
                "type": "address"
            },
            {
                "internalType": "address",
                "name": "",
                "type": "address"
            },
            {
                "internalType": "uint256",
                "name": "",
                "type": "uint256"
            },
            {
                "internalType": "bytes",
                "name": "",
                "type": "bytes"
            }
        ],
        "name": "onERC721Received",
        "outputs": [
            {
                "internalType": "bytes4",
                "name": "",
                "type": "bytes4"
            }
        ],
        "stateMutability": "nonpayable",
        "type": "function"
    },
    {
        "inputs": [
            {
                "internalType": "uint256[]",
                "name": "nonces",
                "type": "uint256[]"
            }
        ],
        "name": "revokeSignatures",
        "outputs": [],
        "stateMutability": "nonpayable",
        "type": "function"
    },
    {
        "inputs": [
            {
                "internalType": "bytes4",
                "name": "interfaceId",
                "type": "bytes4"
            }
        ],
        "name": "supportsInterface",
        "outputs": [
            {
                "internalType": "bool",
                "name": "",
                "type": "bool"
            }
        ],
        "stateMutability": "view",
        "type": "function"
    }
]
