[
    {
        "inputs": [
            {
                "internalType": "address",
                "name": "trustedForwarder",
                "type": "address"
            }
        ],
        "stateMutability": "nonpayable",
        "type": "constructor"
    },
    {
        "inputs": [],
        "name": "ApprovalCallerNotOwnerNorApproved",
        "type": "error"
    },
    {
        "inputs": [],
        "name": "ApprovalQueryForNonexistentToken",
        "type": "error"
    },
    {
        "inputs": [],
        "name": "BalanceQueryForZeroAddress",
        "type": "error"
    },
    {
        "inputs": [],
        "name": "InvalidProof",
        "type": "error"
    },
    {
        "inputs": [],
        "name": "InvalidStage",
        "type": "error"
    },
    {
        "inputs": [],
        "name": "MintERC2309QuantityExceedsLimit",
        "type": "error"
    },
    {
        "inputs": [],
        "name": "MintLimitExceeded",
        "type": "error"
    },
    {
        "inputs": [],
        "name": "MintTimestampNotInFuture",
        "type": "error"
    },
    {
        "inputs": [],
        "name": "MintToZeroAddress",
        "type": "error"
    },
    {
        "inputs": [],
        "name": "MintZeroQuantity",
        "type": "error"
    },
    {
        "inputs": [],
        "name": "MintingEnded",
        "type": "error"
    },
    {
        "inputs": [],
        "name": "MintingNotStarted",
        "type": "error"
    },
    {
        "inputs": [],
        "name": "OwnerQueryForNonexistentToken",
        "type": "error"
    },
    {
        "inputs": [],
        "name": "OwnershipNotInitializedForExtraData",
        "type": "error"
    },
    {
        "inputs": [],
        "name": "PresaleStageLimitExceeded",
        "type": "error"
    },
    {
        "inputs": [],
        "name": "TransferCallerNotOwnerNorApproved",
        "type": "error"
    },
    {
        "inputs": [],
        "name": "TransferFromIncorrectOwner",
        "type": "error"
    },
    {
        "inputs": [],
        "name": "TransferToNonERC721ReceiverImplementer",
        "type": "error"
    },
    {
        "inputs": [],
        "name": "TransferToZeroAddress",
        "type": "error"
    },
    {
        "inputs": [],
        "name": "URIQueryForNonexistentToken",
        "type": "error"
    },
    {
        "inputs": [],
        "name": "ZeroSaleStageDuration",
        "type": "error"
    },
    {
        "anonymous": false,
        "inputs": [
            {
                "indexed": true,
                "internalType": "address",
                "name": "owner",
                "type": "address"
            },
            {
                "indexed": true,
                "internalType": "address",
                "name": "approved",
                "type": "address"
            },
            {
                "indexed": true,
                "internalType": "uint256",
                "name": "tokenId",
                "type": "uint256"
            }
        ],
        "name": "Approval",
        "type": "event"
    },
    {
        "anonymous": false,
        "inputs": [
            {
                "indexed": true,
                "internalType": "address",
                "name": "owner",
                "type": "address"
            },
            {
                "indexed": true,
                "internalType": "address",
                "name": "operator",
                "type": "address"
            },
            {
                "indexed": false,
                "internalType": "bool",
                "name": "approved",
                "type": "bool"
            }
        ],
        "name": "ApprovalForAll",
        "type": "event"
    },
    {
        "anonymous": false,
        "inputs": [
            {
                "indexed": true,
                "internalType": "uint256",
                "name": "fromTokenId",
                "type": "uint256"
            },
            {
                "indexed": false,
                "internalType": "uint256",
                "name": "toTokenId",
                "type": "uint256"
            },
            {
                "indexed": true,
                "internalType": "address",
                "name": "from",
                "type": "address"
            },
            {
                "indexed": true,
                "internalType": "address",
                "name": "to",
                "type": "address"
            }
        ],
        "name": "ConsecutiveTransfer",
        "type": "event"
    },
    {
        "anonymous": false,
        "inputs": [
            {
                "indexed": false,
                "internalType": "uint8",
                "name": "version",
                "type": "uint8"
            }
        ],
        "name": "Initialized",
        "type": "event"
    },
    {
        "anonymous": false,
        "inputs": [
            {
                "indexed": true,
                "internalType": "address",
                "name": "from",
                "type": "address"
            },
            {
                "indexed": true,
                "internalType": "address",
                "name": "to",
                "type": "address"
            },
            {
                "indexed": true,
                "internalType": "uint256",
                "name": "tokenId",
                "type": "uint256"
            }
        ],
        "name": "Transfer",
        "type": "event"
    },
    {
        "inputs": [
            {
                "internalType": "address",
                "name": "to",
                "type": "address"
            },
            {
                "internalType": "uint256",
                "name": "tokenId",
                "type": "uint256"
            }
        ],
        "name": "approve",
        "outputs": [],
        "stateMutability": "payable",
        "type": "function"
    },
    {
        "inputs": [
            {
                "internalType": "address",
                "name": "owner",
                "type": "address"
            }
        ],
        "name": "balanceOf",
        "outputs": [
            {
                "internalType": "uint256",
                "name": "",
                "type": "uint256"
            }
        ],
        "stateMutability": "view",
        "type": "function"
    },
    {
        "inputs": [],
        "name": "baseURI",
        "outputs": [
            {
                "internalType": "string",
                "name": "",
                "type": "string"
            }
        ],
        "stateMutability": "view",
        "type": "function"
    },
    {
        "inputs": [],
        "name": "contractURI",
        "outputs": [
            {
                "internalType": "string",
                "name": "",
                "type": "string"
            }
        ],
        "stateMutability": "view",
        "type": "function"
    },
    {
        "inputs": [
            {
                "internalType": "uint256",
                "name": "tokenId",
                "type": "uint256"
            }
        ],
        "name": "getApproved",
        "outputs": [
            {
                "internalType": "address",
                "name": "",
                "type": "address"
            }
        ],
        "stateMutability": "view",
        "type": "function"
    },
    {
        "inputs": [],
        "name": "getSaleStage",
        "outputs": [
            {
                "internalType": "uint8",
                "name": "index",
                "type": "uint8"
            }
        ],
        "stateMutability": "view",
        "type": "function"
    },
    {
        "inputs": [
            {
                "components": [
                    {
                        "internalType": "string",
                        "name": "name",
                        "type": "string"
                    },
                    {
                        "internalType": "string",
                        "name": "symbol",
                        "type": "string"
                    },
                    {
                        "internalType": "string",
                        "name": "baseURI",
                        "type": "string"
                    },
                    {
                        "internalType": "string",
                        "name": "revealedURI",
                        "type": "string"
                    },
                    {
                        "internalType": "string",
                        "name": "contractURI",
                        "type": "string"
                    },
                    {
                        "internalType": "address",
                        "name": "royaltyReceiver",
                        "type": "address"
                    },
                    {
                        "internalType": "uint96",
                        "name": "royaltyFeeNumerator",
                        "type": "uint96"
                    }
                ],
                "internalType": "struct DropMetadata",
                "name": "metadata",
                "type": "tuple"
            },
            {
                "internalType": "uint32",
                "name": "_mintLimit",
                "type": "uint32"
            },
            {
                "internalType": "uint32",
                "name": "mintStartTimestamp",
                "type": "uint32"
            },
            {
                "components": [
                    {
                        "internalType": "uint32",
                        "name": "duration",
                        "type": "uint32"
                    },
                    {
                        "internalType": "uint32",
                        "name": "perAddressMintLimit",
                        "type": "uint32"
                    },
                    {
                        "internalType": "bytes32",
                        "name": "allowListMerkleRoot",
                        "type": "bytes32"
                    }
                ],
                "internalType": "struct IEeseeNFTDrop.StageOptions[]",
                "name": "salesOptions",
                "type": "tuple[]"
            },
            {
                "internalType": "contract IEeseeRandom",
                "name": "_random",
                "type": "address"
            },
            {
                "internalType": "address",
                "name": "_minter",
                "type": "address"
            }
        ],
        "name": "initialize",
        "outputs": [],
        "stateMutability": "nonpayable",
        "type": "function"
    },
    {
        "inputs": [
            {
                "internalType": "address",
                "name": "owner",
                "type": "address"
            },
            {
                "internalType": "address",
                "name": "operator",
                "type": "address"
            }
        ],
        "name": "isApprovedForAll",
        "outputs": [
            {
                "internalType": "bool",
                "name": "",
                "type": "bool"
            }
        ],
        "stateMutability": "view",
        "type": "function"
    },
    {
        "inputs": [
            {
                "internalType": "address",
                "name": "forwarder",
                "type": "address"
            }
        ],
        "name": "isTrustedForwarder",
        "outputs": [
            {
                "internalType": "bool",
                "name": "",
                "type": "bool"
            }
        ],
        "stateMutability": "view",
        "type": "function"
    },
    {
        "inputs": [
            {
                "internalType": "address",
                "name": "recipient",
                "type": "address"
            },
            {
                "internalType": "uint32",
                "name": "quantity",
                "type": "uint32"
            },
            {
                "internalType": "bytes32[]",
                "name": "merkleProof",
                "type": "bytes32[]"
            }
        ],
        "name": "mint",
        "outputs": [],
        "stateMutability": "nonpayable",
        "type": "function"
    },
    {
        "inputs": [],
        "name": "mintLimit",
        "outputs": [
            {
                "internalType": "uint32",
                "name": "",
                "type": "uint32"
            }
        ],
        "stateMutability": "view",
        "type": "function"
    },
    {
        "inputs": [],
        "name": "minter",
        "outputs": [
            {
                "internalType": "address",
                "name": "",
                "type": "address"
            }
        ],
        "stateMutability": "view",
        "type": "function"
    },
    {
        "inputs": [],
        "name": "name",
        "outputs": [
            {
                "internalType": "string",
                "name": "",
                "type": "string"
            }
        ],
        "stateMutability": "view",
        "type": "function"
    },
    {
        "inputs": [],
        "name": "nextTokenId",
        "outputs": [
            {
                "internalType": "uint256",
                "name": "",
                "type": "uint256"
            }
        ],
        "stateMutability": "view",
        "type": "function"
    },
    {
        "inputs": [
            {
                "internalType": "uint256",
                "name": "tokenId",
                "type": "uint256"
            }
        ],
        "name": "ownerOf",
        "outputs": [
            {
                "internalType": "address",
                "name": "",
                "type": "address"
            }
        ],
        "stateMutability": "view",
        "type": "function"
    },
    {
        "inputs": [],
        "name": "random",
        "outputs": [
            {
                "internalType": "contract IEeseeRandom",
                "name": "",
                "type": "address"
            }
        ],
        "stateMutability": "view",
        "type": "function"
    },
    {
        "inputs": [],
        "name": "revealedURI",
        "outputs": [
            {
                "internalType": "string",
                "name": "",
                "type": "string"
            }
        ],
        "stateMutability": "view",
        "type": "function"
    },
    {
        "inputs": [
            {
                "internalType": "uint256",
                "name": "tokenId",
                "type": "uint256"
            },
            {
                "internalType": "uint256",
                "name": "salePrice",
                "type": "uint256"
            }
        ],
        "name": "royaltyInfo",
        "outputs": [
            {
                "internalType": "address",
                "name": "",
                "type": "address"
            },
            {
                "internalType": "uint256",
                "name": "",
                "type": "uint256"
            }
        ],
        "stateMutability": "view",
        "type": "function"
    },
    {
        "inputs": [
            {
                "internalType": "address",
                "name": "from",
                "type": "address"
            },
            {
                "internalType": "address",
                "name": "to",
                "type": "address"
            },
            {
                "internalType": "uint256",
                "name": "tokenId",
                "type": "uint256"
            }
        ],
        "name": "safeTransferFrom",
        "outputs": [],
        "stateMutability": "payable",
        "type": "function"
    },
    {
        "inputs": [
            {
                "internalType": "address",
                "name": "from",
                "type": "address"
            },
            {
                "internalType": "address",
                "name": "to",
                "type": "address"
            },
            {
                "internalType": "uint256",
                "name": "tokenId",
                "type": "uint256"
            },
            {
                "internalType": "bytes",
                "name": "_data",
                "type": "bytes"
            }
        ],
        "name": "safeTransferFrom",
        "outputs": [],
        "stateMutability": "payable",
        "type": "function"
    },
    {
        "inputs": [
            {
                "internalType": "address",
                "name": "operator",
                "type": "address"
            },
            {
                "internalType": "bool",
                "name": "approved",
                "type": "bool"
            }
        ],
        "name": "setApprovalForAll",
        "outputs": [],
        "stateMutability": "nonpayable",
        "type": "function"
    },
    {
        "inputs": [
            {
                "internalType": "uint256",
                "name": "",
                "type": "uint256"
            }
        ],
        "name": "stages",
        "outputs": [
            {
                "internalType": "uint32",
                "name": "startTimestamp",
                "type": "uint32"
            },
            {
                "components": [
                    {
                        "internalType": "uint32",
                        "name": "duration",
                        "type": "uint32"
                    },
                    {
                        "internalType": "uint32",
                        "name": "perAddressMintLimit",
                        "type": "uint32"
                    },
                    {
                        "internalType": "bytes32",
                        "name": "allowListMerkleRoot",
                        "type": "bytes32"
                    }
                ],
                "internalType": "struct IEeseeNFTDrop.StageOptions",
                "name": "stageOptions",
                "type": "tuple"
            }
        ],
        "stateMutability": "view",
        "type": "function"
    },
    {
        "inputs": [
            {
                "internalType": "bytes4",
                "name": "interfaceId",
                "type": "bytes4"
            }
        ],
        "name": "supportsInterface",
        "outputs": [
            {
                "internalType": "bool",
                "name": "",
                "type": "bool"
            }
        ],
        "stateMutability": "view",
        "type": "function"
    },
    {
        "inputs": [],
        "name": "symbol",
        "outputs": [
            {
                "internalType": "string",
                "name": "",
                "type": "string"
            }
        ],
        "stateMutability": "view",
        "type": "function"
    },
    {
        "inputs": [
            {
                "internalType": "uint256",
                "name": "tokenId",
                "type": "uint256"
            }
        ],
        "name": "tokenURI",
        "outputs": [
            {
                "internalType": "string",
                "name": "",
                "type": "string"
            }
        ],
        "stateMutability": "view",
        "type": "function"
    },
    {
        "inputs": [],
        "name": "totalSupply",
        "outputs": [
            {
                "internalType": "uint256",
                "name": "",
                "type": "uint256"
            }
        ],
        "stateMutability": "view",
        "type": "function"
    },
    {
        "inputs": [
            {
                "internalType": "address",
                "name": "from",
                "type": "address"
            },
            {
                "internalType": "address",
                "name": "to",
                "type": "address"
            },
            {
                "internalType": "uint256",
                "name": "tokenId",
                "type": "uint256"
            }
        ],
        "name": "transferFrom",
        "outputs": [],
        "stateMutability": "payable",
        "type": "function"
    },
    {
        "inputs": [
            {
                "internalType": "uint8",
                "name": "saleStageIndex",
                "type": "uint8"
            },
            {
                "internalType": "address",
                "name": "claimer",
                "type": "address"
            },
            {
                "internalType": "bytes32[]",
                "name": "merkleProof",
                "type": "bytes32[]"
            }
        ],
        "name": "verifyCanMint",
        "outputs": [
            {
                "internalType": "bool",
                "name": "",
                "type": "bool"
            }
        ],
        "stateMutability": "view",
        "type": "function"
    }
]
