[
    {
        "inputs": [],
        "name": "CallerNotAuthorized",
        "type": "error"
    },
    {
        "inputs": [],
        "name": "EthDepositRejected",
        "type": "error"
    },
    {
        "inputs": [
            {
                "internalType": "bytes",
                "name": "err",
                "type": "bytes"
            }
        ],
        "name": "ExecutionFailed",
        "type": "error"
    },
    {
        "inputs": [],
        "name": "InvalidAccessManager",
        "type": "error"
    },
    {
        "inputs": [],
        "name": "InvalidAmount",
        "type": "error"
    },
    {
        "inputs": [],
        "name": "InvalidMsgValue",
        "type": "error"
    },
    {
        "anonymous": false,
        "inputs": [
            {
                "indexed": false,
                "internalType": "address",
                "name": "account",
                "type": "address"
            }
        ],
        "name": "Paused",
        "type": "event"
    },
    {
        "anonymous": false,
        "inputs": [
            {
                "indexed": false,
                "internalType": "address",
                "name": "account",
                "type": "address"
            }
        ],
        "name": "Unpaused",
        "type": "event"
    },
    {
        "inputs": [],
        "name": "ADMIN_ROLE",
        "outputs": [
            {
                "internalType": "bytes32",
                "name": "",
                "type": "bytes32"
            }
        ],
        "stateMutability": "view",
        "type": "function"
    },
    {
        "inputs": [],
        "name": "PAUSER_ROLE",
        "outputs": [
            {
                "internalType": "bytes32",
                "name": "",
                "type": "bytes32"
            }
        ],
        "stateMutability": "view",
        "type": "function"
    },
    {
        "inputs": [],
        "name": "accessManager",
        "outputs": [
            {
                "internalType": "contract IEeseeAccessManager",
                "name": "",
                "type": "address"
            }
        ],
        "stateMutability": "view",
        "type": "function"
    },
    {
        "inputs": [
            {
                "internalType": "bytes",
                "name": "swapData",
                "type": "bytes"
            },
            {
                "internalType": "address",
                "name": "target",
                "type": "address"
            },
            {
                "internalType": "bytes",
                "name": "targetCalldata",
                "type": "bytes"
            }
        ],
        "name": "executeWithSwap",
        "outputs": [
            {
                "internalType": "contract IERC20",
                "name": "srcToken",
                "type": "address"
            },
            {
                "internalType": "uint256",
                "name": "srcSpent",
                "type": "uint256"
            },
            {
                "internalType": "uint256",
                "name": "srcDust",
                "type": "uint256"
            },
            {
                "internalType": "contract IERC20",
                "name": "dstToken",
                "type": "address"
            },
            {
                "internalType": "uint256",
                "name": "dstAmount",
                "type": "uint256"
            },
            {
                "internalType": "uint256",
                "name": "dstDust",
                "type": "uint256"
            },
            {
                "internalType": "bytes",
                "name": "returnData",
                "type": "bytes"
            }
        ],
        "stateMutability": "payable",
        "type": "function"
    },
    {
        "inputs": [
            {
                "internalType": "address",
                "name": "forwarder",
                "type": "address"
            }
        ],
        "name": "isTrustedForwarder",
        "outputs": [
            {
                "internalType": "bool",
                "name": "",
                "type": "bool"
            }
        ],
        "stateMutability": "view",
        "type": "function"
    },
    {
        "inputs": [],
        "name": "pause",
        "outputs": [],
        "stateMutability": "nonpayable",
        "type": "function"
    },
    {
        "inputs": [],
        "name": "paused",
        "outputs": [
            {
                "internalType": "bool",
                "name": "",
                "type": "bool"
            }
        ],
        "stateMutability": "view",
        "type": "function"
    },
    {
        "inputs": [],
        "name": "unpause",
        "outputs": [],
        "stateMutability": "nonpayable",
        "type": "function"
    },
    {
        "stateMutability": "payable",
        "type": "receive"
    }
]
