[
    {
        "inputs": [
            {
                "internalType": "contract IERC20",
                "name": "_ESE",
                "type": "address"
            },
            {
                "internalType": "address",
                "name": "_recipient",
                "type": "address"
            }
        ],
        "stateMutability": "nonpayable",
        "type": "constructor"
    },
    {
        "inputs": [],
        "name": "InvalidConstructor",
        "type": "error"
    },
    {
        "anonymous": false,
        "inputs": [
            {
                "indexed": false,
                "internalType": "uint256",
                "name": "amount",
                "type": "uint256"
            }
        ],
        "name": "Forward",
        "type": "event"
    },
    {
        "inputs": [],
        "name": "ESE",
        "outputs": [
            {
                "internalType": "contract IERC20",
                "name": "",
                "type": "address"
            }
        ],
        "stateMutability": "view",
        "type": "function"
    },
    {
        "inputs": [
            {
                "components": [
                    {
                        "internalType": "bytes32",
                        "name": "messageId",
                        "type": "bytes32"
                    },
                    {
                        "internalType": "uint64",
                        "name": "sourceChainSelector",
                        "type": "uint64"
                    },
                    {
                        "internalType": "bytes",
                        "name": "sender",
                        "type": "bytes"
                    },
                    {
                        "internalType": "bytes",
                        "name": "data",
                        "type": "bytes"
                    },
                    {
                        "components": [
                            {
                                "internalType": "address",
                                "name": "token",
                                "type": "address"
                            },
                            {
                                "internalType": "uint256",
                                "name": "amount",
                                "type": "uint256"
                            }
                        ],
                        "internalType": "struct Client.EVMTokenAmount[]",
                        "name": "destTokenAmounts",
                        "type": "tuple[]"
                    }
                ],
                "internalType": "struct Client.Any2EVMMessage",
                "name": "",
                "type": "tuple"
            }
        ],
        "name": "ccipReceive",
        "outputs": [],
        "stateMutability": "nonpayable",
        "type": "function"
    },
    {
        "inputs": [],
        "name": "recipient",
        "outputs": [
            {
                "internalType": "address",
                "name": "",
                "type": "address"
            }
        ],
        "stateMutability": "view",
        "type": "function"
    },
    {
        "inputs": [
            {
                "internalType": "bytes4",
                "name": "interfaceId",
                "type": "bytes4"
            }
        ],
        "name": "supportsInterface",
        "outputs": [
            {
                "internalType": "bool",
                "name": "",
                "type": "bool"
            }
        ],
        "stateMutability": "view",
        "type": "function"
    }
]
