[
    {
        "inputs": [
            {
                "internalType": "address",
                "name": "caller",
                "type": "address"
            }
        ],
        "name": "CallerIsNotSelf",
        "type": "error"
    },
    {
        "inputs": [],
        "name": "HandlerCannotBeZero",
        "type": "error"
    },
    {
        "anonymous": false,
        "inputs": [
            {
                "indexed": true,
                "internalType": "address",
                "name": "previousHandler",
                "type": "address"
            },
            {
                "indexed": true,
                "internalType": "address",
                "name": "handler",
                "type": "address"
            }
        ],
        "name": "ChangedFallbackHandler",
        "type": "event"
    },
    {
        "stateMutability": "nonpayable",
        "type": "fallback"
    },
    {
        "inputs": [],
        "name": "getFallbackHandler",
        "outputs": [
            {
                "internalType": "address",
                "name": "_handler",
                "type": "address"
            }
        ],
        "stateMutability": "view",
        "type": "function"
    },
    {
        "inputs": [
            {
                "internalType": "address",
                "name": "handler",
                "type": "address"
            }
        ],
        "name": "setFallbackHandler",
        "outputs": [],
        "stateMutability": "nonpayable",
        "type": "function"
    }
]
