[
    {
        "inputs": [
            {
                "internalType": "uint256",
                "name": "ID",
                "type": "uint256"
            }
        ],
        "name": "AssetAlreadyClaimed",
        "type": "error"
    },
    {
        "inputs": [],
        "name": "BuyAmountTooLow",
        "type": "error"
    },
    {
        "inputs": [],
        "name": "BuyLimitExceeded",
        "type": "error"
    },
    {
        "inputs": [
            {
                "internalType": "uint256",
                "name": "ID",
                "type": "uint256"
            }
        ],
        "name": "CallerNotOwner",
        "type": "error"
    },
    {
        "inputs": [
            {
                "internalType": "uint256",
                "name": "ID",
                "type": "uint256"
            }
        ],
        "name": "CallerNotWinner",
        "type": "error"
    },
    {
        "inputs": [
            {
                "internalType": "uint64",
                "name": "maxDuration",
                "type": "uint64"
            }
        ],
        "name": "DurationTooHigh",
        "type": "error"
    },
    {
        "inputs": [
            {
                "internalType": "uint64",
                "name": "minDuration",
                "type": "uint64"
            }
        ],
        "name": "DurationTooLow",
        "type": "error"
    },
    {
        "inputs": [],
        "name": "ESEOverflow",
        "type": "error"
    },
    {
        "inputs": [],
        "name": "ExpiredDeadline",
        "type": "error"
    },
    {
        "inputs": [],
        "name": "FeeTooHigh",
        "type": "error"
    },
    {
        "inputs": [],
        "name": "InvalidAmount",
        "type": "error"
    },
    {
        "inputs": [],
        "name": "InvalidArrayLengths",
        "type": "error"
    },
    {
        "inputs": [],
        "name": "InvalidAsset",
        "type": "error"
    },
    {
        "inputs": [],
        "name": "InvalidConstructor",
        "type": "error"
    },
    {
        "inputs": [],
        "name": "InvalidData",
        "type": "error"
    },
    {
        "inputs": [],
        "name": "InvalidDuration",
        "type": "error"
    },
    {
        "inputs": [],
        "name": "InvalidFee",
        "type": "error"
    },
    {
        "inputs": [],
        "name": "InvalidFeeSplitter",
        "type": "error"
    },
    {
        "inputs": [],
        "name": "InvalidInterface",
        "type": "error"
    },
    {
        "inputs": [],
        "name": "InvalidLazyMintOwner",
        "type": "error"
    },
    {
        "inputs": [],
        "name": "InvalidLotID",
        "type": "error"
    },
    {
        "inputs": [],
        "name": "InvalidOwner",
        "type": "error"
    },
    {
        "inputs": [],
        "name": "InvalidRecipient",
        "type": "error"
    },
    {
        "inputs": [],
        "name": "InvalidSignature",
        "type": "error"
    },
    {
        "inputs": [],
        "name": "InvalidToken",
        "type": "error"
    },
    {
        "inputs": [],
        "name": "InvalidTokenID",
        "type": "error"
    },
    {
        "inputs": [
            {
                "internalType": "uint256",
                "name": "ID",
                "type": "uint256"
            }
        ],
        "name": "LotAlreadyFulfilled",
        "type": "error"
    },
    {
        "inputs": [
            {
                "internalType": "uint256",
                "name": "ID",
                "type": "uint256"
            }
        ],
        "name": "LotExpired",
        "type": "error"
    },
    {
        "inputs": [
            {
                "internalType": "uint256",
                "name": "ID",
                "type": "uint256"
            }
        ],
        "name": "LotNotClosed",
        "type": "error"
    },
    {
        "inputs": [
            {
                "internalType": "uint256",
                "name": "ID",
                "type": "uint256"
            }
        ],
        "name": "LotNotExists",
        "type": "error"
    },
    {
        "inputs": [
            {
                "internalType": "uint256",
                "name": "ID",
                "type": "uint256"
            }
        ],
        "name": "LotNotExpired",
        "type": "error"
    },
    {
        "inputs": [
            {
                "internalType": "uint256",
                "name": "ID",
                "type": "uint256"
            }
        ],
        "name": "LotNotFulfilled",
        "type": "error"
    },
    {
        "inputs": [
            {
                "internalType": "uint256",
                "name": "ID",
                "type": "uint256"
            }
        ],
        "name": "NoTicketsBought",
        "type": "error"
    },
    {
        "inputs": [
            {
                "internalType": "uint256",
                "name": "ID",
                "type": "uint256"
            }
        ],
        "name": "NoTicketsHeld",
        "type": "error"
    },
    {
        "inputs": [],
        "name": "NonceUsed",
        "type": "error"
    },
    {
        "inputs": [],
        "name": "TicketPriceTooLow",
        "type": "error"
    },
    {
        "inputs": [
            {
                "internalType": "uint256",
                "name": "ID",
                "type": "uint256"
            }
        ],
        "name": "TokensAlreadyClaimed",
        "type": "error"
    },
    {
        "inputs": [],
        "name": "TotalTicketsTooHigh",
        "type": "error"
    },
    {
        "inputs": [],
        "name": "TotalTicketsTooLow",
        "type": "error"
    },
    {
        "inputs": [],
        "name": "TransferNotSuccessful",
        "type": "error"
    },
    {
        "anonymous": false,
        "inputs": [
            {
                "indexed": false,
                "internalType": "uint96",
                "name": "untrackedVolume",
                "type": "uint96"
            },
            {
                "indexed": true,
                "internalType": "address",
                "name": "recipient",
                "type": "address"
            }
        ],
        "name": "AddVolumeReverted",
        "type": "event"
    },
    {
        "anonymous": false,
        "inputs": [
            {
                "indexed": true,
                "internalType": "uint256",
                "name": "ID",
                "type": "uint256"
            },
            {
                "indexed": true,
                "internalType": "address",
                "name": "recipient",
                "type": "address"
            },
            {
                "indexed": true,
                "internalType": "uint32",
                "name": "lowerBound",
                "type": "uint32"
            },
            {
                "indexed": false,
                "internalType": "uint32",
                "name": "ticketAmount",
                "type": "uint32"
            },
            {
                "indexed": false,
                "internalType": "uint96",
                "name": "tokensSpent",
                "type": "uint96"
            },
            {
                "indexed": false,
                "internalType": "uint32",
                "name": "bonusTickets",
                "type": "uint32"
            }
        ],
        "name": "BuyTickets",
        "type": "event"
    },
    {
        "anonymous": false,
        "inputs": [
            {
                "indexed": true,
                "internalType": "uint32",
                "name": "previousFee",
                "type": "uint32"
            },
            {
                "indexed": true,
                "internalType": "uint32",
                "name": "newFee",
                "type": "uint32"
            }
        ],
        "name": "ChangeFee",
        "type": "event"
    },
    {
        "anonymous": false,
        "inputs": [
            {
                "indexed": true,
                "internalType": "address",
                "name": "previousFeeSplitter",
                "type": "address"
            },
            {
                "indexed": true,
                "internalType": "address",
                "name": "newFeeSplitter",
                "type": "address"
            }
        ],
        "name": "ChangeFeeSplitter",
        "type": "event"
    },
    {
        "anonymous": false,
        "inputs": [
            {
                "indexed": true,
                "internalType": "uint64",
                "name": "previousMaxDuration",
                "type": "uint64"
            },
            {
                "indexed": true,
                "internalType": "uint64",
                "name": "newMaxDuration",
                "type": "uint64"
            }
        ],
        "name": "ChangeMaxDuration",
        "type": "event"
    },
    {
        "anonymous": false,
        "inputs": [
            {
                "indexed": true,
                "internalType": "uint64",
                "name": "previousMinDuration",
                "type": "uint64"
            },
            {
                "indexed": true,
                "internalType": "uint64",
                "name": "newMinDuration",
                "type": "uint64"
            }
        ],
        "name": "ChangeMinDuration",
        "type": "event"
    },
    {
        "anonymous": false,
        "inputs": [
            {
                "indexed": true,
                "internalType": "address",
                "name": "to",
                "type": "address"
            },
            {
                "indexed": false,
                "internalType": "uint96",
                "name": "amount",
                "type": "uint96"
            }
        ],
        "name": "CollectFee",
        "type": "event"
    },
    {
        "anonymous": false,
        "inputs": [
            {
                "indexed": true,
                "internalType": "address",
                "name": "recipient",
                "type": "address"
            },
            {
                "indexed": false,
                "internalType": "uint96",
                "name": "amount",
                "type": "uint96"
            }
        ],
        "name": "CollectRoyalty",
        "type": "event"
    },
    {
        "anonymous": false,
        "inputs": [
            {
                "indexed": true,
                "internalType": "uint256",
                "name": "ID",
                "type": "uint256"
            },
            {
                "indexed": true,
                "internalType": "address",
                "name": "signer",
                "type": "address"
            },
            {
                "indexed": true,
                "internalType": "uint256",
                "name": "nonce",
                "type": "uint256"
            }
        ],
        "name": "ConsumeNonce",
        "type": "event"
    },
    {
        "anonymous": false,
        "inputs": [
            {
                "indexed": true,
                "internalType": "uint256",
                "name": "ID",
                "type": "uint256"
            },
            {
                "components": [
                    {
                        "internalType": "address",
                        "name": "token",
                        "type": "address"
                    },
                    {
                        "internalType": "uint256",
                        "name": "tokenID",
                        "type": "uint256"
                    },
                    {
                        "internalType": "uint256",
                        "name": "amount",
                        "type": "uint256"
                    },
                    {
                        "internalType": "enum AssetType",
                        "name": "assetType",
                        "type": "uint8"
                    },
                    {
                        "internalType": "bytes",
                        "name": "data",
                        "type": "bytes"
                    }
                ],
                "indexed": false,
                "internalType": "struct Asset",
                "name": "asset",
                "type": "tuple"
            },
            {
                "indexed": true,
                "internalType": "address",
                "name": "signer",
                "type": "address"
            },
            {
                "indexed": true,
                "internalType": "address",
                "name": "owner",
                "type": "address"
            },
            {
                "indexed": false,
                "internalType": "uint32",
                "name": "totalTickets",
                "type": "uint32"
            },
            {
                "indexed": false,
                "internalType": "uint96",
                "name": "ticketPrice",
                "type": "uint96"
            },
            {
                "indexed": false,
                "internalType": "uint32",
                "name": "endTimestamp",
                "type": "uint32"
            }
        ],
        "name": "CreateLot",
        "type": "event"
    },
    {
        "anonymous": false,
        "inputs": [
            {
                "indexed": true,
                "internalType": "uint256",
                "name": "ID",
                "type": "uint256"
            },
            {
                "indexed": true,
                "internalType": "address",
                "name": "winner",
                "type": "address"
            },
            {
                "indexed": true,
                "internalType": "address",
                "name": "recipient",
                "type": "address"
            },
            {
                "components": [
                    {
                        "internalType": "address",
                        "name": "token",
                        "type": "address"
                    },
                    {
                        "internalType": "uint256",
                        "name": "tokenID",
                        "type": "uint256"
                    },
                    {
                        "internalType": "uint256",
                        "name": "amount",
                        "type": "uint256"
                    },
                    {
                        "internalType": "enum AssetType",
                        "name": "assetType",
                        "type": "uint8"
                    },
                    {
                        "internalType": "bytes",
                        "name": "data",
                        "type": "bytes"
                    }
                ],
                "indexed": false,
                "internalType": "struct Asset",
                "name": "asset",
                "type": "tuple"
            }
        ],
        "name": "ReceiveAsset",
        "type": "event"
    },
    {
        "anonymous": false,
        "inputs": [
            {
                "indexed": true,
                "internalType": "uint256",
                "name": "ID",
                "type": "uint256"
            },
            {
                "indexed": true,
                "internalType": "address",
                "name": "claimer",
                "type": "address"
            },
            {
                "indexed": true,
                "internalType": "address",
                "name": "recipient",
                "type": "address"
            },
            {
                "indexed": false,
                "internalType": "uint96",
                "name": "amount",
                "type": "uint96"
            }
        ],
        "name": "ReceiveTokens",
        "type": "event"
    },
    {
        "anonymous": false,
        "inputs": [
            {
                "indexed": true,
                "internalType": "uint256",
                "name": "ID",
                "type": "uint256"
            },
            {
                "indexed": true,
                "internalType": "address",
                "name": "owner",
                "type": "address"
            },
            {
                "indexed": true,
                "internalType": "address",
                "name": "recipient",
                "type": "address"
            },
            {
                "components": [
                    {
                        "internalType": "address",
                        "name": "token",
                        "type": "address"
                    },
                    {
                        "internalType": "uint256",
                        "name": "tokenID",
                        "type": "uint256"
                    },
                    {
                        "internalType": "uint256",
                        "name": "amount",
                        "type": "uint256"
                    },
                    {
                        "internalType": "enum AssetType",
                        "name": "assetType",
                        "type": "uint8"
                    },
                    {
                        "internalType": "bytes",
                        "name": "data",
                        "type": "bytes"
                    }
                ],
                "indexed": false,
                "internalType": "struct Asset",
                "name": "asset",
                "type": "tuple"
            }
        ],
        "name": "ReclaimAsset",
        "type": "event"
    },
    {
        "anonymous": false,
        "inputs": [
            {
                "indexed": true,
                "internalType": "uint256",
                "name": "ID",
                "type": "uint256"
            },
            {
                "indexed": true,
                "internalType": "address",
                "name": "claimer",
                "type": "address"
            },
            {
                "indexed": true,
                "internalType": "address",
                "name": "recipient",
                "type": "address"
            },
            {
                "indexed": false,
                "internalType": "uint96",
                "name": "amount",
                "type": "uint96"
            }
        ],
        "name": "ReclaimTokens",
        "type": "event"
    },
    {
        "inputs": [],
        "name": "ESE",
        "outputs": [
            {
                "internalType": "contract IERC20",
                "name": "",
                "type": "address"
            }
        ],
        "stateMutability": "view",
        "type": "function"
    },
    {
        "inputs": [],
        "name": "RETURN_INTERVAL",
        "outputs": [
            {
                "internalType": "uint32",
                "name": "",
                "type": "uint32"
            }
        ],
        "stateMutability": "view",
        "type": "function"
    },
    {
        "inputs": [
            {
                "internalType": "uint256[]",
                "name": "ID",
                "type": "uint256[]"
            },
            {
                "internalType": "uint32[]",
                "name": "amount",
                "type": "uint32[]"
            },
            {
                "internalType": "address",
                "name": "recipient",
                "type": "address"
            },
            {
                "internalType": "bytes",
                "name": "permit",
                "type": "bytes"
            }
        ],
        "name": "buyTickets",
        "outputs": [
            {
                "internalType": "uint96",
                "name": "tokensSpent",
                "type": "uint96"
            }
        ],
        "stateMutability": "payable",
        "type": "function"
    },
    {
        "inputs": [
            {
                "internalType": "address",
                "name": "to",
                "type": "address"
            },
            {
                "internalType": "bytes",
                "name": "data",
                "type": "bytes"
            }
        ],
        "name": "callExternal",
        "outputs": [
            {
                "internalType": "bytes",
                "name": "",
                "type": "bytes"
            }
        ],
        "stateMutability": "payable",
        "type": "function"
    },
    {
        "inputs": [
            {
                "internalType": "uint32",
                "name": "_fee",
                "type": "uint32"
            }
        ],
        "name": "changeFee",
        "outputs": [],
        "stateMutability": "nonpayable",
        "type": "function"
    },
    {
        "inputs": [
            {
                "internalType": "address",
                "name": "_feeSplitter",
                "type": "address"
            }
        ],
        "name": "changeFeeSplitter",
        "outputs": [],
        "stateMutability": "nonpayable",
        "type": "function"
    },
    {
        "inputs": [
            {
                "internalType": "uint64",
                "name": "_maxDuration",
                "type": "uint64"
            }
        ],
        "name": "changeMaxDuration",
        "outputs": [],
        "stateMutability": "nonpayable",
        "type": "function"
    },
    {
        "inputs": [
            {
                "internalType": "uint64",
                "name": "_minDuration",
                "type": "uint64"
            }
        ],
        "name": "changeMinDuration",
        "outputs": [],
        "stateMutability": "nonpayable",
        "type": "function"
    },
    {
        "inputs": [
            {
                "components": [
                    {
                        "internalType": "address",
                        "name": "token",
                        "type": "address"
                    },
                    {
                        "internalType": "uint256",
                        "name": "tokenID",
                        "type": "uint256"
                    },
                    {
                        "internalType": "uint256",
                        "name": "amount",
                        "type": "uint256"
                    },
                    {
                        "internalType": "enum AssetType",
                        "name": "assetType",
                        "type": "uint8"
                    },
                    {
                        "internalType": "bytes",
                        "name": "data",
                        "type": "bytes"
                    }
                ],
                "internalType": "struct Asset[]",
                "name": "assets",
                "type": "tuple[]"
            },
            {
                "components": [
                    {
                        "internalType": "uint32",
                        "name": "totalTickets",
                        "type": "uint32"
                    },
                    {
                        "internalType": "uint96",
                        "name": "ticketPrice",
                        "type": "uint96"
                    },
                    {
                        "internalType": "uint32",
                        "name": "duration",
                        "type": "uint32"
                    },
                    {
                        "internalType": "address",
                        "name": "owner",
                        "type": "address"
                    },
                    {
                        "internalType": "address",
                        "name": "signer",
                        "type": "address"
                    },
                    {
                        "internalType": "bytes",
                        "name": "signatureData",
                        "type": "bytes"
                    }
                ],
                "internalType": "struct IEesee.LotParams[]",
                "name": "params",
                "type": "tuple[]"
            },
            {
                "internalType": "uint32",
                "name": "expectedFee",
                "type": "uint32"
            }
        ],
        "name": "createLots",
        "outputs": [
            {
                "internalType": "uint256[]",
                "name": "IDs",
                "type": "uint256[]"
            }
        ],
        "stateMutability": "payable",
        "type": "function"
    },
    {
        "inputs": [
            {
                "components": [
                    {
                        "internalType": "address",
                        "name": "token",
                        "type": "address"
                    },
                    {
                        "internalType": "uint256",
                        "name": "tokenID",
                        "type": "uint256"
                    },
                    {
                        "internalType": "uint256",
                        "name": "amount",
                        "type": "uint256"
                    },
                    {
                        "internalType": "enum AssetType",
                        "name": "assetType",
                        "type": "uint8"
                    },
                    {
                        "internalType": "bytes",
                        "name": "data",
                        "type": "bytes"
                    }
                ],
                "internalType": "struct Asset[]",
                "name": "assets",
                "type": "tuple[]"
            },
            {
                "components": [
                    {
                        "internalType": "uint32",
                        "name": "totalTickets",
                        "type": "uint32"
                    },
                    {
                        "internalType": "uint96",
                        "name": "ticketPrice",
                        "type": "uint96"
                    },
                    {
                        "internalType": "uint32",
                        "name": "duration",
                        "type": "uint32"
                    },
                    {
                        "internalType": "address",
                        "name": "owner",
                        "type": "address"
                    },
                    {
                        "internalType": "address",
                        "name": "signer",
                        "type": "address"
                    },
                    {
                        "internalType": "bytes",
                        "name": "signatureData",
                        "type": "bytes"
                    }
                ],
                "internalType": "struct IEesee.LotParams[]",
                "name": "params",
                "type": "tuple[]"
            },
            {
                "internalType": "uint32",
                "name": "expectedFee",
                "type": "uint32"
            },
            {
                "internalType": "uint32[]",
                "name": "amounts",
                "type": "uint32[]"
            },
            {
                "internalType": "address",
                "name": "recipient",
                "type": "address"
            },
            {
                "internalType": "bytes",
                "name": "permit",
                "type": "bytes"
            }
        ],
        "name": "createLotsAndBuyTickets",
        "outputs": [
            {
                "internalType": "uint256[]",
                "name": "IDs",
                "type": "uint256[]"
            },
            {
                "internalType": "uint96",
                "name": "tokensSpent",
                "type": "uint96"
            }
        ],
        "stateMutability": "payable",
        "type": "function"
    },
    {
        "inputs": [],
        "name": "fee",
        "outputs": [
            {
                "internalType": "uint32",
                "name": "",
                "type": "uint32"
            }
        ],
        "stateMutability": "view",
        "type": "function"
    },
    {
        "inputs": [],
        "name": "feeSplitter",
        "outputs": [
            {
                "internalType": "address",
                "name": "",
                "type": "address"
            }
        ],
        "stateMutability": "view",
        "type": "function"
    },
    {
        "inputs": [
            {
                "internalType": "uint256",
                "name": "ID",
                "type": "uint256"
            },
            {
                "internalType": "uint32",
                "name": "transaction",
                "type": "uint32"
            }
        ],
        "name": "getBuyTicketsRecipient",
        "outputs": [
            {
                "internalType": "address",
                "name": "",
                "type": "address"
            }
        ],
        "stateMutability": "view",
        "type": "function"
    },
    {
        "inputs": [
            {
                "internalType": "uint256",
                "name": "ID",
                "type": "uint256"
            },
            {
                "internalType": "address",
                "name": "_address",
                "type": "address"
            }
        ],
        "name": "getLotBonusTicketsHeldByAddress",
        "outputs": [
            {
                "internalType": "uint32",
                "name": "",
                "type": "uint32"
            }
        ],
        "stateMutability": "view",
        "type": "function"
    },
    {
        "inputs": [
            {
                "internalType": "uint256",
                "name": "ID",
                "type": "uint256"
            },
            {
                "internalType": "uint32",
                "name": "ticket",
                "type": "uint32"
            }
        ],
        "name": "getLotTicketHolder",
        "outputs": [
            {
                "internalType": "address",
                "name": "",
                "type": "address"
            }
        ],
        "stateMutability": "view",
        "type": "function"
    },
    {
        "inputs": [
            {
                "internalType": "uint256",
                "name": "ID",
                "type": "uint256"
            },
            {
                "internalType": "address",
                "name": "_address",
                "type": "address"
            }
        ],
        "name": "getLotTicketsHeldByAddress",
        "outputs": [
            {
                "internalType": "uint32",
                "name": "",
                "type": "uint32"
            }
        ],
        "stateMutability": "view",
        "type": "function"
    },
    {
        "inputs": [],
        "name": "getLotsLength",
        "outputs": [
            {
                "internalType": "uint256",
                "name": "length",
                "type": "uint256"
            }
        ],
        "stateMutability": "view",
        "type": "function"
    },
    {
        "inputs": [
            {
                "internalType": "uint256",
                "name": "",
                "type": "uint256"
            }
        ],
        "name": "lots",
        "outputs": [
            {
                "internalType": "uint32",
                "name": "totalTickets",
                "type": "uint32"
            },
            {
                "internalType": "uint32",
                "name": "bonusTickets",
                "type": "uint32"
            },
            {
                "internalType": "uint32",
                "name": "ticketsBought",
                "type": "uint32"
            },
            {
                "internalType": "uint96",
                "name": "ticketPrice",
                "type": "uint96"
            },
            {
                "internalType": "uint32",
                "name": "transactions",
                "type": "uint32"
            },
            {
                "internalType": "uint32",
                "name": "endTimestamp",
                "type": "uint32"
            },
            {
                "internalType": "uint32",
                "name": "fee",
                "type": "uint32"
            },
            {
                "internalType": "bool",
                "name": "closed",
                "type": "bool"
            },
            {
                "internalType": "bool",
                "name": "buyout",
                "type": "bool"
            },
            {
                "internalType": "bool",
                "name": "assetClaimed",
                "type": "bool"
            },
            {
                "internalType": "bool",
                "name": "tokensClaimed",
                "type": "bool"
            },
            {
                "internalType": "address",
                "name": "owner",
                "type": "address"
            },
            {
                "components": [
                    {
                        "internalType": "address",
                        "name": "token",
                        "type": "address"
                    },
                    {
                        "internalType": "uint256",
                        "name": "tokenID",
                        "type": "uint256"
                    },
                    {
                        "internalType": "uint256",
                        "name": "amount",
                        "type": "uint256"
                    },
                    {
                        "internalType": "enum AssetType",
                        "name": "assetType",
                        "type": "uint8"
                    },
                    {
                        "internalType": "bytes",
                        "name": "data",
                        "type": "bytes"
                    }
                ],
                "internalType": "struct Asset",
                "name": "asset",
                "type": "tuple"
            }
        ],
        "stateMutability": "view",
        "type": "function"
    },
    {
        "inputs": [],
        "name": "maxDuration",
        "outputs": [
            {
                "internalType": "uint64",
                "name": "",
                "type": "uint64"
            }
        ],
        "stateMutability": "view",
        "type": "function"
    },
    {
        "inputs": [],
        "name": "minDuration",
        "outputs": [
            {
                "internalType": "uint64",
                "name": "",
                "type": "uint64"
            }
        ],
        "stateMutability": "view",
        "type": "function"
    },
    {
        "inputs": [
            {
                "internalType": "address",
                "name": "",
                "type": "address"
            },
            {
                "internalType": "uint256",
                "name": "",
                "type": "uint256"
            }
        ],
        "name": "nonceUsed",
        "outputs": [
            {
                "internalType": "bool",
                "name": "",
                "type": "bool"
            }
        ],
        "stateMutability": "view",
        "type": "function"
    },
    {
        "inputs": [],
        "name": "random",
        "outputs": [
            {
                "internalType": "contract IEeseeRandom",
                "name": "",
                "type": "address"
            }
        ],
        "stateMutability": "view",
        "type": "function"
    },
    {
        "inputs": [
            {
                "internalType": "uint256[]",
                "name": "IDs",
                "type": "uint256[]"
            },
            {
                "internalType": "address",
                "name": "recipient",
                "type": "address"
            }
        ],
        "name": "receiveAssets",
        "outputs": [
            {
                "components": [
                    {
                        "internalType": "address",
                        "name": "token",
                        "type": "address"
                    },
                    {
                        "internalType": "uint256",
                        "name": "tokenID",
                        "type": "uint256"
                    },
                    {
                        "internalType": "uint256",
                        "name": "amount",
                        "type": "uint256"
                    },
                    {
                        "internalType": "enum AssetType",
                        "name": "assetType",
                        "type": "uint8"
                    },
                    {
                        "internalType": "bytes",
                        "name": "data",
                        "type": "bytes"
                    }
                ],
                "internalType": "struct Asset[]",
                "name": "assets",
                "type": "tuple[]"
            }
        ],
        "stateMutability": "payable",
        "type": "function"
    },
    {
        "inputs": [
            {
                "internalType": "uint256[]",
                "name": "IDs",
                "type": "uint256[]"
            },
            {
                "internalType": "address",
                "name": "recipient",
                "type": "address"
            }
        ],
        "name": "receiveTokens",
        "outputs": [
            {
                "internalType": "uint96",
                "name": "amount",
                "type": "uint96"
            }
        ],
        "stateMutability": "payable",
        "type": "function"
    },
    {
        "inputs": [
            {
                "internalType": "uint256[]",
                "name": "IDs",
                "type": "uint256[]"
            },
            {
                "internalType": "address",
                "name": "recipient",
                "type": "address"
            }
        ],
        "name": "reclaimAssets",
        "outputs": [
            {
                "components": [
                    {
                        "internalType": "address",
                        "name": "token",
                        "type": "address"
                    },
                    {
                        "internalType": "uint256",
                        "name": "tokenID",
                        "type": "uint256"
                    },
                    {
                        "internalType": "uint256",
                        "name": "amount",
                        "type": "uint256"
                    },
                    {
                        "internalType": "enum AssetType",
                        "name": "assetType",
                        "type": "uint8"
                    },
                    {
                        "internalType": "bytes",
                        "name": "data",
                        "type": "bytes"
                    }
                ],
                "internalType": "struct Asset[]",
                "name": "assets",
                "type": "tuple[]"
            }
        ],
        "stateMutability": "payable",
        "type": "function"
    },
    {
        "inputs": [
            {
                "internalType": "uint256[]",
                "name": "IDs",
                "type": "uint256[]"
            },
            {
                "internalType": "address",
                "name": "recipient",
                "type": "address"
            }
        ],
        "name": "reclaimTokens",
        "outputs": [
            {
                "internalType": "uint96",
                "name": "amount",
                "type": "uint96"
            }
        ],
        "stateMutability": "payable",
        "type": "function"
    },
    {
        "inputs": [],
        "name": "staking",
        "outputs": [
            {
                "internalType": "contract IEeseeStaking",
                "name": "",
                "type": "address"
            }
        ],
        "stateMutability": "view",
        "type": "function"
    }
]
