[
    {
        "inputs": [],
        "name": "NotProxy",
        "type": "error"
    },
    {
        "inputs": [],
        "name": "contractId",
        "outputs": [
            {
                "internalType": "bytes32",
                "name": "",
                "type": "bytes32"
            }
        ],
        "stateMutability": "pure",
        "type": "function"
    },
    {
        "inputs": [
            {
                "internalType": "bytes",
                "name": "params",
                "type": "bytes"
            }
        ],
        "name": "setup",
        "outputs": [],
        "stateMutability": "nonpayable",
        "type": "function"
    }
]
