[
    {
        "inputs": [
            {
                "internalType": "string",
                "name": "name",
                "type": "string"
            },
            {
                "internalType": "string",
                "name": "symbol",
                "type": "string"
            },
            {
                "internalType": "uint8",
                "name": "decimals",
                "type": "uint8"
            },
            {
                "internalType": "uint256",
                "name": "cap",
                "type": "uint256"
            },
            {
                "internalType": "bytes32",
                "name": "salt",
                "type": "bytes32"
            }
        ],
        "name": "deployToken",
        "outputs": [
            {
                "internalType": "address",
                "name": "tokenAddress",
                "type": "address"
            }
        ],
        "stateMutability": "nonpayable",
        "type": "function"
    }
]
