[
    {
        "inputs": [
            {
                "internalType": "uint256",
                "name": "tokenManagerType",
                "type": "uint256"
            }
        ],
        "name": "tokenManagerImplementation",
        "outputs": [
            {
                "internalType": "address",
                "name": "tokenManagerAddress_",
                "type": "address"
            }
        ],
        "stateMutability": "view",
        "type": "function"
    }
]
