[
    {
        "inputs": [],
        "name": "typeAndVersion",
        "outputs": [
            {
                "internalType": "string",
                "name": "",
                "type": "string"
            }
        ],
        "stateMutability": "pure",
        "type": "function"
    }
]
