[
    {
        "inputs": [
            {
                "internalType": "contract IERC20",
                "name": "_outToken",
                "type": "address"
            }
        ],
        "stateMutability": "nonpayable",
        "type": "constructor"
    },
    {
        "inputs": [
            {
                "internalType": "address",
                "name": "msgSender",
                "type": "address"
            },
            {
                "internalType": "bytes",
                "name": "data",
                "type": "bytes"
            },
            {
                "internalType": "uint256",
                "name": "amount",
                "type": "uint256"
            }
        ],
        "name": "execute",
        "outputs": [],
        "stateMutability": "payable",
        "type": "function"
    }
]
