[
    {
        "inputs": [],
        "name": "newStr",
        "outputs": [
            {
                "internalType": "string",
                "name": "",
                "type": "string"
            }
        ],
        "stateMutability": "view",
        "type": "function"
    },
    {
        "inputs": [
            {
                "internalType": "string",
                "name": "newString",
                "type": "string"
            }
        ],
        "name": "storeString",
        "outputs": [],
        "stateMutability": "nonpayable",
        "type": "function"
    }
]
