[
    {
        "inputs": [
            {
                "internalType": "contract IEeseeAccessManager",
                "name": "_accessManager",
                "type": "address"
            },
            {
                "internalType": "contract IRouter",
                "name": "router",
                "type": "address"
            }
        ],
        "stateMutability": "nonpayable",
        "type": "constructor"
    },
    {
        "inputs": [
            {
                "internalType": "uint64",
                "name": "sequenceNumber",
                "type": "uint64"
            }
        ],
        "name": "AlreadyAttempted",
        "type": "error"
    },
    {
        "inputs": [
            {
                "internalType": "uint64",
                "name": "sequenceNumber",
                "type": "uint64"
            }
        ],
        "name": "AlreadyExecuted",
        "type": "error"
    },
    {
        "inputs": [],
        "name": "CanOnlySelfCall",
        "type": "error"
    },
    {
        "inputs": [],
        "name": "EmptyReport",
        "type": "error"
    },
    {
        "inputs": [
            {
                "internalType": "bytes",
                "name": "error",
                "type": "bytes"
            }
        ],
        "name": "ExecutionError",
        "type": "error"
    },
    {
        "inputs": [
            {
                "internalType": "bytes",
                "name": "error",
                "type": "bytes"
            }
        ],
        "name": "ReceiverError",
        "type": "error"
    },
    {
        "inputs": [
            {
                "internalType": "bytes",
                "name": "error",
                "type": "bytes"
            }
        ],
        "name": "TokenHandlingError",
        "type": "error"
    },
    {
        "inputs": [],
        "name": "UnauthorizedTransmitter",
        "type": "error"
    },
    {
        "inputs": [],
        "name": "ZeroAddressNotAllowed",
        "type": "error"
    },
    {
        "anonymous": false,
        "inputs": [
            {
                "indexed": true,
                "internalType": "uint64",
                "name": "sequenceNumber",
                "type": "uint64"
            },
            {
                "indexed": true,
                "internalType": "bytes32",
                "name": "messageId",
                "type": "bytes32"
            },
            {
                "indexed": false,
                "internalType": "enum Internal.MessageExecutionState",
                "name": "state",
                "type": "uint8"
            },
            {
                "indexed": false,
                "internalType": "bytes",
                "name": "returnData",
                "type": "bytes"
            }
        ],
        "name": "ExecutionStateChanged",
        "type": "event"
    },
    {
        "inputs": [],
        "name": "TRANSMITTER_ROLE",
        "outputs": [
            {
                "internalType": "bytes32",
                "name": "",
                "type": "bytes32"
            }
        ],
        "stateMutability": "view",
        "type": "function"
    },
    {
        "inputs": [],
        "name": "accessManager",
        "outputs": [
            {
                "internalType": "contract IEeseeAccessManager",
                "name": "",
                "type": "address"
            }
        ],
        "stateMutability": "view",
        "type": "function"
    },
    {
        "inputs": [
            {
                "components": [
                    {
                        "internalType": "uint64",
                        "name": "sourceChainSelector",
                        "type": "uint64"
                    },
                    {
                        "internalType": "address",
                        "name": "sender",
                        "type": "address"
                    },
                    {
                        "internalType": "address",
                        "name": "receiver",
                        "type": "address"
                    },
                    {
                        "internalType": "uint64",
                        "name": "sequenceNumber",
                        "type": "uint64"
                    },
                    {
                        "internalType": "uint256",
                        "name": "gasLimit",
                        "type": "uint256"
                    },
                    {
                        "internalType": "bool",
                        "name": "strict",
                        "type": "bool"
                    },
                    {
                        "internalType": "uint64",
                        "name": "nonce",
                        "type": "uint64"
                    },
                    {
                        "internalType": "address",
                        "name": "feeToken",
                        "type": "address"
                    },
                    {
                        "internalType": "uint256",
                        "name": "feeTokenAmount",
                        "type": "uint256"
                    },
                    {
                        "internalType": "bytes",
                        "name": "data",
                        "type": "bytes"
                    },
                    {
                        "components": [
                            {
                                "internalType": "address",
                                "name": "token",
                                "type": "address"
                            },
                            {
                                "internalType": "uint256",
                                "name": "amount",
                                "type": "uint256"
                            }
                        ],
                        "internalType": "struct Client.EVMTokenAmount[]",
                        "name": "tokenAmounts",
                        "type": "tuple[]"
                    },
                    {
                        "internalType": "bytes[]",
                        "name": "sourceTokenData",
                        "type": "bytes[]"
                    },
                    {
                        "internalType": "bytes32",
                        "name": "messageId",
                        "type": "bytes32"
                    }
                ],
                "internalType": "struct Internal.EVM2EVMMessage",
                "name": "message",
                "type": "tuple"
            }
        ],
        "name": "executeSingleMessage",
        "outputs": [],
        "stateMutability": "nonpayable",
        "type": "function"
    },
    {
        "inputs": [
            {
                "components": [
                    {
                        "internalType": "uint64",
                        "name": "sourceChainSelector",
                        "type": "uint64"
                    },
                    {
                        "internalType": "address",
                        "name": "sender",
                        "type": "address"
                    },
                    {
                        "internalType": "address",
                        "name": "receiver",
                        "type": "address"
                    },
                    {
                        "internalType": "uint64",
                        "name": "sequenceNumber",
                        "type": "uint64"
                    },
                    {
                        "internalType": "uint256",
                        "name": "gasLimit",
                        "type": "uint256"
                    },
                    {
                        "internalType": "bool",
                        "name": "strict",
                        "type": "bool"
                    },
                    {
                        "internalType": "uint64",
                        "name": "nonce",
                        "type": "uint64"
                    },
                    {
                        "internalType": "address",
                        "name": "feeToken",
                        "type": "address"
                    },
                    {
                        "internalType": "uint256",
                        "name": "feeTokenAmount",
                        "type": "uint256"
                    },
                    {
                        "internalType": "bytes",
                        "name": "data",
                        "type": "bytes"
                    },
                    {
                        "components": [
                            {
                                "internalType": "address",
                                "name": "token",
                                "type": "address"
                            },
                            {
                                "internalType": "uint256",
                                "name": "amount",
                                "type": "uint256"
                            }
                        ],
                        "internalType": "struct Client.EVMTokenAmount[]",
                        "name": "tokenAmounts",
                        "type": "tuple[]"
                    },
                    {
                        "internalType": "bytes[]",
                        "name": "sourceTokenData",
                        "type": "bytes[]"
                    },
                    {
                        "internalType": "bytes32",
                        "name": "messageId",
                        "type": "bytes32"
                    }
                ],
                "internalType": "struct Internal.EVM2EVMMessage",
                "name": "message",
                "type": "tuple"
            }
        ],
        "name": "transmit",
        "outputs": [],
        "stateMutability": "nonpayable",
        "type": "function"
    }
]
