[
    {
        "inputs": [
            {
                "components": [
                    {
                        "internalType": "uint64",
                        "name": "chainSelector",
                        "type": "uint64"
                    },
                    {
                        "internalType": "uint64",
                        "name": "destChainSelector",
                        "type": "uint64"
                    }
                ],
                "internalType": "struct OnRamp.StaticConfig",
                "name": "staticConfig",
                "type": "tuple"
            },
            {
                "components": [
                    {
                        "internalType": "address",
                        "name": "router",
                        "type": "address"
                    },
                    {
                        "internalType": "uint32",
                        "name": "maxDataBytes",
                        "type": "uint32"
                    },
                    {
                        "internalType": "uint32",
                        "name": "maxPerMsgGasLimit",
                        "type": "uint32"
                    }
                ],
                "internalType": "struct OnRamp.DynamicConfig",
                "name": "dynamicConfig",
                "type": "tuple"
            }
        ],
        "stateMutability": "nonpayable",
        "type": "constructor"
    },
    {
        "inputs": [],
        "name": "BadARMSignal",
        "type": "error"
    },
    {
        "inputs": [],
        "name": "CannotSendZeroTokens",
        "type": "error"
    },
    {
        "inputs": [],
        "name": "InsufficientBalance",
        "type": "error"
    },
    {
        "inputs": [
            {
                "internalType": "bytes",
                "name": "encodedAddress",
                "type": "bytes"
            }
        ],
        "name": "InvalidAddress",
        "type": "error"
    },
    {
        "inputs": [
            {
                "internalType": "uint64",
                "name": "chainSelector",
                "type": "uint64"
            }
        ],
        "name": "InvalidChainSelector",
        "type": "error"
    },
    {
        "inputs": [],
        "name": "InvalidConfig",
        "type": "error"
    },
    {
        "inputs": [],
        "name": "InvalidExtraArgsTag",
        "type": "error"
    },
    {
        "inputs": [],
        "name": "MaxFeeBalanceReached",
        "type": "error"
    },
    {
        "inputs": [],
        "name": "MessageGasLimitTooHigh",
        "type": "error"
    },
    {
        "inputs": [
            {
                "internalType": "uint256",
                "name": "maxSize",
                "type": "uint256"
            },
            {
                "internalType": "uint256",
                "name": "actualSize",
                "type": "uint256"
            }
        ],
        "name": "MessageTooLarge",
        "type": "error"
    },
    {
        "inputs": [],
        "name": "MustBeCalledByRouter",
        "type": "error"
    },
    {
        "inputs": [],
        "name": "NoFeesToPay",
        "type": "error"
    },
    {
        "inputs": [
            {
                "internalType": "address",
                "name": "token",
                "type": "address"
            }
        ],
        "name": "NotAFeeToken",
        "type": "error"
    },
    {
        "inputs": [],
        "name": "OnlyCallableByOwnerOrAdmin",
        "type": "error"
    },
    {
        "inputs": [],
        "name": "RouterMustSetOriginalSender",
        "type": "error"
    },
    {
        "inputs": [
            {
                "internalType": "address",
                "name": "token",
                "type": "address"
            }
        ],
        "name": "SourceTokenDataTooLarge",
        "type": "error"
    },
    {
        "anonymous": false,
        "inputs": [
            {
                "components": [
                    {
                        "internalType": "uint64",
                        "name": "sourceChainSelector",
                        "type": "uint64"
                    },
                    {
                        "internalType": "address",
                        "name": "sender",
                        "type": "address"
                    },
                    {
                        "internalType": "address",
                        "name": "receiver",
                        "type": "address"
                    },
                    {
                        "internalType": "uint64",
                        "name": "sequenceNumber",
                        "type": "uint64"
                    },
                    {
                        "internalType": "uint256",
                        "name": "gasLimit",
                        "type": "uint256"
                    },
                    {
                        "internalType": "bool",
                        "name": "strict",
                        "type": "bool"
                    },
                    {
                        "internalType": "uint64",
                        "name": "nonce",
                        "type": "uint64"
                    },
                    {
                        "internalType": "address",
                        "name": "feeToken",
                        "type": "address"
                    },
                    {
                        "internalType": "uint256",
                        "name": "feeTokenAmount",
                        "type": "uint256"
                    },
                    {
                        "internalType": "bytes",
                        "name": "data",
                        "type": "bytes"
                    },
                    {
                        "components": [
                            {
                                "internalType": "address",
                                "name": "token",
                                "type": "address"
                            },
                            {
                                "internalType": "uint256",
                                "name": "amount",
                                "type": "uint256"
                            }
                        ],
                        "internalType": "struct Client.EVMTokenAmount[]",
                        "name": "tokenAmounts",
                        "type": "tuple[]"
                    },
                    {
                        "internalType": "bytes[]",
                        "name": "sourceTokenData",
                        "type": "bytes[]"
                    },
                    {
                        "internalType": "bytes32",
                        "name": "messageId",
                        "type": "bytes32"
                    }
                ],
                "indexed": false,
                "internalType": "struct Internal.EVM2EVMMessage",
                "name": "message",
                "type": "tuple"
            }
        ],
        "name": "CCIPSendRequested",
        "type": "event"
    },
    {
        "anonymous": false,
        "inputs": [
            {
                "components": [
                    {
                        "internalType": "uint64",
                        "name": "chainSelector",
                        "type": "uint64"
                    },
                    {
                        "internalType": "uint64",
                        "name": "destChainSelector",
                        "type": "uint64"
                    }
                ],
                "indexed": false,
                "internalType": "struct OnRamp.StaticConfig",
                "name": "staticConfig",
                "type": "tuple"
            },
            {
                "components": [
                    {
                        "internalType": "address",
                        "name": "router",
                        "type": "address"
                    },
                    {
                        "internalType": "uint32",
                        "name": "maxDataBytes",
                        "type": "uint32"
                    },
                    {
                        "internalType": "uint32",
                        "name": "maxPerMsgGasLimit",
                        "type": "uint32"
                    }
                ],
                "indexed": false,
                "internalType": "struct OnRamp.DynamicConfig",
                "name": "dynamicConfig",
                "type": "tuple"
            }
        ],
        "name": "ConfigSet",
        "type": "event"
    },
    {
        "inputs": [
            {
                "internalType": "uint64",
                "name": "destChainSelector",
                "type": "uint64"
            },
            {
                "components": [
                    {
                        "internalType": "bytes",
                        "name": "receiver",
                        "type": "bytes"
                    },
                    {
                        "internalType": "bytes",
                        "name": "data",
                        "type": "bytes"
                    },
                    {
                        "components": [
                            {
                                "internalType": "address",
                                "name": "token",
                                "type": "address"
                            },
                            {
                                "internalType": "uint256",
                                "name": "amount",
                                "type": "uint256"
                            }
                        ],
                        "internalType": "struct Client.EVMTokenAmount[]",
                        "name": "tokenAmounts",
                        "type": "tuple[]"
                    },
                    {
                        "internalType": "address",
                        "name": "feeToken",
                        "type": "address"
                    },
                    {
                        "internalType": "bytes",
                        "name": "extraArgs",
                        "type": "bytes"
                    }
                ],
                "internalType": "struct Client.EVM2AnyMessage",
                "name": "message",
                "type": "tuple"
            },
            {
                "internalType": "uint256",
                "name": "feeTokenAmount",
                "type": "uint256"
            },
            {
                "internalType": "address",
                "name": "originalSender",
                "type": "address"
            }
        ],
        "name": "forwardFromRouter",
        "outputs": [
            {
                "internalType": "bytes32",
                "name": "",
                "type": "bytes32"
            }
        ],
        "stateMutability": "nonpayable",
        "type": "function"
    },
    {
        "inputs": [
            {
                "internalType": "uint64",
                "name": "destChainSelector",
                "type": "uint64"
            },
            {
                "components": [
                    {
                        "internalType": "bytes",
                        "name": "receiver",
                        "type": "bytes"
                    },
                    {
                        "internalType": "bytes",
                        "name": "data",
                        "type": "bytes"
                    },
                    {
                        "components": [
                            {
                                "internalType": "address",
                                "name": "token",
                                "type": "address"
                            },
                            {
                                "internalType": "uint256",
                                "name": "amount",
                                "type": "uint256"
                            }
                        ],
                        "internalType": "struct Client.EVMTokenAmount[]",
                        "name": "tokenAmounts",
                        "type": "tuple[]"
                    },
                    {
                        "internalType": "address",
                        "name": "feeToken",
                        "type": "address"
                    },
                    {
                        "internalType": "bytes",
                        "name": "extraArgs",
                        "type": "bytes"
                    }
                ],
                "internalType": "struct Client.EVM2AnyMessage",
                "name": "message",
                "type": "tuple"
            }
        ],
        "name": "getFee",
        "outputs": [
            {
                "internalType": "uint256",
                "name": "feeTokenAmount",
                "type": "uint256"
            }
        ],
        "stateMutability": "view",
        "type": "function"
    }
]
