[
    {
        "inputs": [
            {
                "internalType": "address",
                "name": "caller",
                "type": "address"
            }
        ],
        "name": "CallerIsNotSelf",
        "type": "error"
    }
]
