[
    {
        "inputs": [],
        "name": "ApproveCalledOnETH",
        "type": "error"
    },
    {
        "inputs": [],
        "name": "ETHTransferFailed",
        "type": "error"
    },
    {
        "inputs": [],
        "name": "FromIsNotSender",
        "type": "error"
    },
    {
        "inputs": [],
        "name": "InsufficientBalance",
        "type": "error"
    },
    {
        "inputs": [],
        "name": "NotEnoughValue",
        "type": "error"
    },
    {
        "inputs": [],
        "name": "ToIsNotThis",
        "type": "error"
    }
]
