[
    {
        "inputs": [
            {
                "internalType": "contract IERC20",
                "name": "_USDC",
                "type": "address"
            },
            {
                "internalType": "contract IERC20",
                "name": "_aUSDC",
                "type": "address"
            }
        ],
        "stateMutability": "nonpayable",
        "type": "constructor"
    },
    {
        "inputs": [],
        "name": "USDC",
        "outputs": [
            {
                "internalType": "contract IERC20",
                "name": "",
                "type": "address"
            }
        ],
        "stateMutability": "view",
        "type": "function"
    },
    {
        "inputs": [],
        "name": "aUSDC",
        "outputs": [
            {
                "internalType": "contract IERC20",
                "name": "",
                "type": "address"
            }
        ],
        "stateMutability": "view",
        "type": "function"
    },
    {
        "inputs": [
            {
                "internalType": "uint256",
                "name": "amount",
                "type": "uint256"
            },
            {
                "internalType": "address",
                "name": "recipient",
                "type": "address"
            }
        ],
        "name": "unwrap",
        "outputs": [],
        "stateMutability": "nonpayable",
        "type": "function"
    },
    {
        "inputs": [
            {
                "internalType": "uint256",
                "name": "amount",
                "type": "uint256"
            },
            {
                "internalType": "address",
                "name": "recipient",
                "type": "address"
            }
        ],
        "name": "wrap",
        "outputs": [],
        "stateMutability": "nonpayable",
        "type": "function"
    }
]
